<?xml version="1.0" encoding="UTF-8" standalone="no"?>
<!-- Generator: Adobe Illustrator 22.0.1, SVG Export Plug-In . SVG Version: 6.00 Build 0)  -->

<svg
   xmlns:dc="http://purl.org/dc/elements/1.1/"
   xmlns:cc="http://creativecommons.org/ns#"
   xmlns:rdf="http://www.w3.org/1999/02/22-rdf-syntax-ns#"
   xmlns:svg="http://www.w3.org/2000/svg"
   xmlns="http://www.w3.org/2000/svg"
   xmlns:sodipodi="http://sodipodi.sourceforge.net/DTD/sodipodi-0.dtd"
   xmlns:inkscape="http://www.inkscape.org/namespaces/inkscape"
   version="1.1"
   id="Слой_1"
   x="0px"
   y="0px"
   viewBox="0 0 284.17148 252.40009"
   xml:space="preserve"
   sodipodi:docname="1.17.svg"
   width="284.17148"
   height="252.4001"
   inkscape:version="0.92.1 r15371"><metadata
   id="metadata17"><rdf:RDF><cc:Work
       rdf:about=""><dc:format>image/svg+xml</dc:format><dc:type
         rdf:resource="http://purl.org/dc/dcmitype/StillImage" /></cc:Work></rdf:RDF></metadata><defs
   id="defs15" /><sodipodi:namedview
   pagecolor="#ffffff"
   bordercolor="#666666"
   borderopacity="1"
   objecttolerance="10"
   gridtolerance="10"
   guidetolerance="10"
   inkscape:pageopacity="0"
   inkscape:pageshadow="2"
   inkscape:window-width="741"
   inkscape:window-height="480"
   id="namedview13"
   showgrid="false"
   inkscape:zoom="0.28031832"
   inkscape:cx="142.63581"
   inkscape:cy="126.32504"
   inkscape:window-x="0"
   inkscape:window-y="0"
   inkscape:window-maximized="0"
   inkscape:current-layer="Слой_1" />
<style
   type="text/css"
   id="style2">
	.st0{fill-rule:evenodd;clip-rule:evenodd;fill:#FFFFFF;stroke:#000000;stroke-width:0.7501;stroke-miterlimit:22.9256;}
	.st1{fill-rule:evenodd;clip-rule:evenodd;fill:#B92B1E;}
	.st2{fill-rule:evenodd;clip-rule:evenodd;}
</style>
<g
   id="g10"
   transform="translate(-155.01418,-294.87495)">
	<path
   class="st0"
   d="m 313.2,306.2 c 41,71.1 81,144.7 123.5,214.7 6.5,10.7 -3,26 -15,26 -83.1,0 -166.1,0 -249.2,0 -12,0 -21.5,-15.4 -15,-26 C 200,450.8 240,377.3 281,306.2 c 8.4,-14.6 23.8,-14.6 32.2,0 z"
   id="path4"
   inkscape:connector-curvature="0"
   style="clip-rule:evenodd;fill:#ffffff;fill-rule:evenodd;stroke:#000000;stroke-width:0.75010002;stroke-miterlimit:22.92560005" />
	<path
   class="st1"
   d="M 284.8,308.3 167.7,512 c -2.1,3.7 -4.2,7.4 -6.4,11.1 -4.7,7.7 2.5,19.4 11.3,19.4 h 249.2 c 8.7,0 15.9,-11.7 11.3,-19.4 -2.2,-3.7 -4.3,-7.4 -6.4,-11.1 L 309.4,308.3 c -6.5,-11.4 -18.1,-11.4 -24.6,0 z m 5.7,214.6 h 112.7 c 1.8,0 4.7,-3.9 3.6,-5.8 -5.7,-9.5 -12.1,-20.8 -17.6,-30.5 L 301.5,334 c -2.8,-4.9 -6,-4.9 -8.8,0 L 193,507.5 c -1.8,3.2 -3.7,6.4 -5.6,9.6 -1.1,1.9 1.7,5.8 3.6,5.8 33.2,0 66.3,0 99.5,0 z"
   id="path6"
   inkscape:connector-curvature="0"
   style="clip-rule:evenodd;fill:#b92b1e;fill-rule:evenodd" />
	<path
   class="st2"
   d="m 297.1,469.2 c 10.3,0 21.6,2.3 31.2,6.2 16.9,6.9 23.3,20.9 38.7,20.9 h 21.7 v 9.8 H 205.5 v -9.8 h 21.7 c 15.4,0 21.8,-14 38.7,-20.9 9.6,-3.9 20.9,-6.2 31.2,-6.2 z"
   id="path8"
   inkscape:connector-curvature="0"
   style="clip-rule:evenodd;fill-rule:evenodd" />
</g>
</svg>