<?xml version="1.0" encoding="UTF-8" standalone="no"?>
<!-- Generator: Adobe Illustrator 22.0.1, SVG Export Plug-In . SVG Version: 6.00 Build 0)  -->

<svg
   xmlns:dc="http://purl.org/dc/elements/1.1/"
   xmlns:cc="http://creativecommons.org/ns#"
   xmlns:rdf="http://www.w3.org/1999/02/22-rdf-syntax-ns#"
   xmlns:svg="http://www.w3.org/2000/svg"
   xmlns="http://www.w3.org/2000/svg"
   xmlns:sodipodi="http://sodipodi.sourceforge.net/DTD/sodipodi-0.dtd"
   xmlns:inkscape="http://www.inkscape.org/namespaces/inkscape"
   version="1.1"
   id="Слой_1"
   x="0px"
   y="0px"
   viewBox="0 0 284.19642 183.6091"
   xml:space="preserve"
   sodipodi:docname="1.3.1.svg"
   width="284.19641"
   height="183.6091"
   inkscape:version="0.92.1 r15371"><metadata
   id="metadata15"><rdf:RDF><cc:Work
       rdf:about=""><dc:format>image/svg+xml</dc:format><dc:type
         rdf:resource="http://purl.org/dc/dcmitype/StillImage" /></cc:Work></rdf:RDF></metadata><defs
   id="defs13" /><sodipodi:namedview
   pagecolor="#ffffff"
   bordercolor="#666666"
   borderopacity="1"
   objecttolerance="10"
   gridtolerance="10"
   guidetolerance="10"
   inkscape:pageopacity="0"
   inkscape:pageshadow="2"
   inkscape:window-width="741"
   inkscape:window-height="480"
   id="namedview11"
   showgrid="false"
   inkscape:zoom="0.28031832"
   inkscape:cx="142.69856"
   inkscape:cy="92.554541"
   inkscape:window-x="0"
   inkscape:window-y="0"
   inkscape:window-maximized="0"
   inkscape:current-layer="Слой_1" />
<style
   type="text/css"
   id="style2">
	.st0{fill-rule:evenodd;clip-rule:evenodd;fill:#FFFFFF;stroke:#000000;stroke-width:0.5669;stroke-miterlimit:22.9256;}
	.st1{fill-rule:evenodd;clip-rule:evenodd;fill:#B92B1E;}
</style>
<g
   id="g8"
   transform="translate(-154.95143,-329.89545)">
	<polygon
   class="st0"
   points="438.8,339.8 429.2,375.1 348.4,421.7 429.2,468.3 438.8,503.6 403.6,513.2 297.1,451.7 190.5,513.2 155.3,503.6 165,468.3 245.8,421.7 165,375.1 155.3,339.8 190.5,330.2 297.1,391.7 403.6,330.2 "
   id="polygon4"
   style="clip-rule:evenodd;fill:#ffffff;fill-rule:evenodd;stroke:#000000;stroke-width:0.56690001;stroke-miterlimit:22.92560005" />
	<path
   class="st1"
   d="m 297.1,394.1 106.8,-61.7 32.3,8.8 -8.9,32.4 -83.2,48 83.2,48 8.9,32.4 -32.3,8.8 -106.8,-61.7 -106.9,61.9 -32.3,-8.8 8.9,-32.4 83.2,-48 -83.2,-48 -8.9,-32.4 32.3,-8.8 z m -108.4,-49.8 -17.2,4.7 4.8,17.4 95.8,55.3 -95.9,55.3 -4.8,17.4 17.2,4.7 108.4,-62.6 108.4,62.6 17.2,-4.7 L 417.8,477 322,421.7 417.8,366.4 422.6,349 405.4,344.3 297,406.9 Z"
   id="path6"
   inkscape:connector-curvature="0"
   style="clip-rule:evenodd;fill:#b92b1e;fill-rule:evenodd" />
</g>
</svg>