<?xml version="1.0" encoding="UTF-8" standalone="no"?>
<!-- Generator: Adobe Illustrator 22.0.1, SVG Export Plug-In . SVG Version: 6.00 Build 0)  -->

<svg
   xmlns:dc="http://purl.org/dc/elements/1.1/"
   xmlns:cc="http://creativecommons.org/ns#"
   xmlns:rdf="http://www.w3.org/1999/02/22-rdf-syntax-ns#"
   xmlns:svg="http://www.w3.org/2000/svg"
   xmlns="http://www.w3.org/2000/svg"
   xmlns:sodipodi="http://sodipodi.sourceforge.net/DTD/sodipodi-0.dtd"
   xmlns:inkscape="http://www.inkscape.org/namespaces/inkscape"
   version="1.1"
   id="Слой_1"
   x="0px"
   y="0px"
   viewBox="0 0 283.96689 283.96688"
   xml:space="preserve"
   sodipodi:docname="3.4.svg"
   width="283.96689"
   height="283.96689"
   inkscape:version="0.48.2 r9819"><metadata
   id="metadata17"><rdf:RDF><cc:Work
       rdf:about=""><dc:format>image/svg+xml</dc:format><dc:type
         rdf:resource="http://purl.org/dc/dcmitype/StillImage" /></cc:Work></rdf:RDF></metadata><defs
   id="defs15" /><sodipodi:namedview
   pagecolor="#ffffff"
   bordercolor="#666666"
   borderopacity="1"
   objecttolerance="10"
   gridtolerance="10"
   guidetolerance="10"
   inkscape:pageopacity="0"
   inkscape:pageshadow="2"
   inkscape:window-width="1366"
   inkscape:window-height="705"
   id="namedview13"
   showgrid="false"
   inkscape:zoom="0.70710678"
   inkscape:cx="-268.16739"
   inkscape:cy="122.34217"
   inkscape:window-x="-8"
   inkscape:window-y="-8"
   inkscape:window-maximized="1"
   inkscape:current-layer="Слой_1" />
<style
   type="text/css"
   id="style2">
	.st0{fill-rule:evenodd;clip-rule:evenodd;fill:#FFFFFF;stroke:#000000;stroke-width:0.5669;stroke-miterlimit:22.9256;}
	.st1{fill-rule:evenodd;clip-rule:evenodd;fill:#B92B1E;}
	.st2{fill-rule:evenodd;clip-rule:evenodd;}
</style>
<g
   id="g10"
   transform="translate(-155.01655,-278.91655)">
	<path
   class="st0"
   d="m 297,279.2 c 78.3,0 141.7,63.5 141.7,141.7 0,78.2 -63.4,141.7 -141.7,141.7 -78.3,0 -141.7,-63.5 -141.7,-141.7 0,-78.2 63.4,-141.7 141.7,-141.7 z"
   id="path4"
   inkscape:connector-curvature="0"
   style="clip-rule:evenodd;fill:#ffffff;fill-rule:evenodd;stroke:#000000;stroke-width:0.56690001;stroke-miterlimit:22.92560005" />
	<path
   class="st1"
   d="m 297,283.5 c 75.9,0 137.4,61.5 137.4,137.4 0,75.9 -61.5,137.4 -137.4,137.4 -75.9,0 -137.4,-61.5 -137.4,-137.4 0,-75.9 61.5,-137.4 137.4,-137.4 z m 0,24.1 c 62.6,0 113.3,50.7 113.3,113.3 0,62.6 -50.7,113.3 -113.3,113.3 -62.6,0 -113.3,-50.7 -113.3,-113.3 0,-62.6 50.7,-113.3 113.3,-113.3 z"
   id="path6"
   inkscape:connector-curvature="0"
   style="clip-rule:evenodd;fill:#b92b1e;fill-rule:evenodd" />
	<path
   class="st2"
   d="m 264.5,435.3 h 119.6 v -65.4 c 0,-4.8 -4,-8.8 -8.8,-8.8 h -102 c -4.8,0 -8.8,4 -8.8,8.8 z m 46.2,-58.6 c 7,0 12.9,4.2 12.9,11.6 0,4.2 -2.2,7.3 -5.9,9 v 0.1 c 10.5,3.8 9.1,22.2 -7.1,22.2 -16.2,0 -17.6,-18.4 -7.1,-22.2 v -0.1 c -9.9,-4.6 -6.9,-20.6 7.2,-20.6 z m 0,24.1 c 2.1,0.5 3.7,1.3 4.8,2.4 1.1,1.2 1.7,2.6 1.7,4.3 0,1 -0.2,1.8 -0.5,2.5 -0.3,0.7 -0.8,1.3 -1.4,1.8 -0.6,0.5 -1.3,0.8 -2.1,1.1 -0.8,0.2 -1.6,0.4 -2.6,0.4 -0.9,0 -1.7,-0.1 -2.5,-0.4 -0.8,-0.2 -1.5,-0.6 -2.1,-1.1 -0.6,-0.5 -1.1,-1.1 -1.4,-1.8 -0.3,-0.7 -0.5,-1.6 -0.5,-2.5 0,-1.7 0.6,-3.2 1.7,-4.3 1.2,-1.1 2.8,-1.9 4.9,-2.4 z m 6.3,-12.6 c 0,1.7 -0.5,3.1 -1.6,4.2 -1.1,1.1 -2.6,1.9 -4.7,2.3 -2,-0.4 -3.6,-1.2 -4.7,-2.3 -1.1,-1.1 -1.6,-2.5 -1.6,-4.2 0,-0.9 0.2,-1.7 0.5,-2.4 0.3,-0.7 0.8,-1.3 1.3,-1.7 0.6,-0.5 1.2,-0.8 2,-1 0.8,-0.2 1.6,-0.3 2.4,-0.3 0.9,0 1.7,0.1 2.5,0.3 0.8,0.2 1.4,0.6 2,1 0.6,0.5 1,1 1.3,1.7 0.5,0.7 0.6,1.5 0.6,2.4 z m 16,0.7 h 23.4 v 7.4 h -8 v 22.8 H 341 v -22.8 h -8 z m -72.6,50.3 h 82.7 c -8.1,1.8 -14.2,9 -14.3,17.5 h -72.6 c -0.2,-10 -8.4,-18 -18.4,-18 -10,0 -18.2,8 -18.4,18 H 210 c -5.1,0 -9.3,-4.2 -9.3,-9.3 v -8.3 -18.7 -3.1 c 0.2,-1.6 0.8,-3.1 1.8,-4.4 l 14.2,-20.5 c 1.6,-2.3 3.4,-4 6.5,-4 h 27 c 5.6,0 10.2,4.6 10.2,10.2 v 21.9 z m 90.8,0 H 384 v 17.5 h -18.4 c -0.2,-8.5 -6.3,-15.7 -14.4,-17.5 z M 237.8,449 c 4.5,0 8.2,3.7 8.2,8.2 0,4.5 -3.7,8.2 -8.2,8.2 -4.5,0 -8.2,-3.7 -8.2,-8.2 0,-4.6 3.7,-8.2 8.2,-8.2 z m 0,-7.9 c 8.9,0 16.1,7.2 16.1,16.1 0,8.9 -7.2,16.1 -16.1,16.1 -8.9,0 -16.1,-7.2 -16.1,-16.1 0,-8.9 7.2,-16.1 16.1,-16.1 z m 109.4,7.9 c 4.5,0 8.2,3.7 8.2,8.2 0,4.5 -3.7,8.2 -8.2,8.2 -4.5,0 -8.2,-3.7 -8.2,-8.2 0,-4.6 3.6,-8.2 8.2,-8.2 z m 0,-7.9 c 8.9,0 16.1,7.2 16.1,16.1 0,8.9 -7.2,16.1 -16.1,16.1 -8.9,0 -16.1,-7.2 -16.1,-16.1 0,-8.9 7.2,-16.1 16.1,-16.1 z M 224.1,393.9 h 22.1 c 2.8,0 5.1,2.3 5.1,5.1 v 12.9 c 0,2.8 -2.3,5.1 -5.1,5.1 h -29.9 c -4.6,0 -5.9,-5.4 -4,-8.3 l 8.5,-12.8 c 0.8,-1.1 1.7,-2 3.3,-2 z"
   id="path8"
   inkscape:connector-curvature="0"
   style="clip-rule:evenodd;fill-rule:evenodd" />
</g>
<rect
   style="color:#000000;fill:#000000;fill-opacity:1;fill-rule:evenodd;stroke:#000000;stroke-width:1;stroke-linecap:butt;stroke-linejoin:miter;stroke-miterlimit:4;stroke-opacity:1;stroke-dasharray:none;stroke-dashoffset:0;marker:none;visibility:visible;display:inline;overflow:visible;enable-background:accumulate"
   id="rect2996"
   width="38.349258"
   height="57.077969"
   x="131.9928"
   y="91.328751"
   transform="translate(0,-5e-6)"
   rx="12.857143"
   ry="12.857143" /><text
   xml:space="preserve"
   style="font-size:80.00072479px;font-style:normal;font-variant:normal;font-weight:normal;font-stretch:normal;line-height:125%;letter-spacing:0px;word-spacing:0px;fill:#000000;fill-opacity:1;stroke:none;font-family:Russian Road Sign;-inkscape-font-specification:Russian Road Sign"
   x="136.35571"
   y="141.54565"
   id="text2998"
   sodipodi:linespacing="125%"><tspan
     sodipodi:role="line"
     id="tspan3000"
     x="136.35571"
     y="141.54565"
     style="fill:#ffffff">8</tspan></text>
</svg>