<?xml version="1.0" encoding="UTF-8" standalone="no"?>
<!-- Generator: Adobe Illustrator 22.0.1, SVG Export Plug-In . SVG Version: 6.00 Build 0)  -->

<svg
   xmlns:dc="http://purl.org/dc/elements/1.1/"
   xmlns:cc="http://creativecommons.org/ns#"
   xmlns:rdf="http://www.w3.org/1999/02/22-rdf-syntax-ns#"
   xmlns:svg="http://www.w3.org/2000/svg"
   xmlns="http://www.w3.org/2000/svg"
   xmlns:sodipodi="http://sodipodi.sourceforge.net/DTD/sodipodi-0.dtd"
   xmlns:inkscape="http://www.inkscape.org/namespaces/inkscape"
   version="1.1"
   id="Слой_1"
   x="0px"
   y="0px"
   viewBox="0 0 283.96689 283.96688"
   xml:space="preserve"
   sodipodi:docname="4.1.1.svg"
   width="283.96689"
   height="283.96689"
   inkscape:version="0.92.1 r15371"><metadata
   id="metadata15"><rdf:RDF><cc:Work
       rdf:about=""><dc:format>image/svg+xml</dc:format><dc:type
         rdf:resource="http://purl.org/dc/dcmitype/StillImage" /></cc:Work></rdf:RDF></metadata><defs
   id="defs13" /><sodipodi:namedview
   pagecolor="#ffffff"
   bordercolor="#666666"
   borderopacity="1"
   objecttolerance="10"
   gridtolerance="10"
   guidetolerance="10"
   inkscape:pageopacity="0"
   inkscape:pageshadow="2"
   inkscape:window-width="741"
   inkscape:window-height="480"
   id="namedview11"
   showgrid="false"
   inkscape:zoom="0.28031832"
   inkscape:cx="142.63344"
   inkscape:cy="141.93344"
   inkscape:window-x="0"
   inkscape:window-y="0"
   inkscape:window-maximized="0"
   inkscape:current-layer="Слой_1" />
<style
   type="text/css"
   id="style2">
	.st0{fill-rule:evenodd;clip-rule:evenodd;fill:#FFFFFF;stroke:#000000;stroke-width:0.5669;stroke-miterlimit:22.9256;}
	.st1{fill-rule:evenodd;clip-rule:evenodd;fill:#3298DF;}
</style>
<g
   id="g8"
   transform="translate(-155.01655,-278.91655)">
	<path
   class="st0"
   d="m 297,279.2 c 78.3,0 141.7,63.5 141.7,141.7 0,78.3 -63.5,141.7 -141.7,141.7 -78.3,0 -141.7,-63.5 -141.7,-141.7 0,-78.3 63.4,-141.7 141.7,-141.7 z"
   id="path4"
   inkscape:connector-curvature="0"
   style="clip-rule:evenodd;fill:#ffffff;fill-rule:evenodd;stroke:#000000;stroke-width:0.56690001;stroke-miterlimit:22.92560005" />
	<path
   class="st1"
   d="m 297,287.4 c 73.7,0 133.5,59.8 133.5,133.5 0,68.8 -52.1,125.5 -119,132.7 v -173 h 23.3 L 297,315.1 259.2,380.5 h 23.3 v 173.1 c -66.9,-7.2 -119,-63.9 -119,-132.7 0,-73.7 59.8,-133.5 133.5,-133.5 z"
   id="path6"
   inkscape:connector-curvature="0"
   style="clip-rule:evenodd;fill:#3298df;fill-rule:evenodd" />
</g>
</svg>