<?xml version="1.0" encoding="UTF-8" standalone="no"?>
<!-- Created with Inkscape (http://www.inkscape.org/) -->

<svg
   xmlns:dc="http://purl.org/dc/elements/1.1/"
   xmlns:cc="http://creativecommons.org/ns#"
   xmlns:rdf="http://www.w3.org/1999/02/22-rdf-syntax-ns#"
   xmlns:svg="http://www.w3.org/2000/svg"
   xmlns="http://www.w3.org/2000/svg"
   xmlns:sodipodi="http://sodipodi.sourceforge.net/DTD/sodipodi-0.dtd"
   xmlns:inkscape="http://www.inkscape.org/namespaces/inkscape"
   version="1.1"
   width="285.95227"
   height="285.99811"
   viewBox="0 0 285.95228 285.9981"
   id="Слой_1"
   xml:space="preserve"
   sodipodi:docname="4.5.5.svg"
   inkscape:version="0.92.1 r15371"><sodipodi:namedview
   pagecolor="#ffffff"
   bordercolor="#666666"
   borderopacity="1"
   objecttolerance="10"
   gridtolerance="10"
   guidetolerance="10"
   inkscape:pageopacity="0"
   inkscape:pageshadow="2"
   inkscape:window-width="1366"
   inkscape:window-height="705"
   id="namedview9"
   showgrid="false"
   inkscape:zoom="1.1212733"
   inkscape:cx="-135.62103"
   inkscape:cy="82.892832"
   inkscape:window-x="-8"
   inkscape:window-y="-8"
   inkscape:window-maximized="1"
   inkscape:current-layer="Слой_1" /><metadata
   id="metadata15"><rdf:RDF><cc:Work
       rdf:about=""><dc:format>image/svg+xml</dc:format><dc:type
         rdf:resource="http://purl.org/dc/dcmitype/StillImage" /><dc:title /></cc:Work></rdf:RDF></metadata><defs
   id="defs13" />
<style
   type="text/css"
   id="style3" />
<g
   id="g5"
   transform="translate(-154.45359,-276.61315)">
	
	
</g>
<ellipse
   id="path6124"
   style="color:#000000;display:inline;overflow:visible;visibility:visible;fill:#ffffff;fill-opacity:1;fill-rule:nonzero;stroke:none;stroke-width:5.60243559px;marker:none;enable-background:accumulate"
   cx="142.9762"
   cy="142.99913"
   rx="142.97607"
   ry="142.99898" /><ellipse
   style="color:#000000;display:inline;overflow:visible;visibility:visible;fill:none;stroke:#000000;stroke-width:0.81707156;stroke-miterlimit:4;stroke-dasharray:none;stroke-opacity:1;marker:none;enable-background:accumulate"
   id="path6162"
   cx="142.9761"
   cy="142.99895"
   rx="142.56757"
   ry="142.59041" /><path
   style="color:#000000;display:inline;overflow:visible;visibility:visible;fill:#3298df;fill-opacity:1;fill-rule:nonzero;stroke:none;stroke-width:3.57469296px;marker:none;enable-background:accumulate"
   d="M 138.36775,8.247923 C 66.050294,10.677823 8.1701742,70.078353 8.1701742,142.99907 c 0,72.92027 57.8801198,132.32086 130.1975758,134.75072 z m 9.21685,0 V 277.74979 c 72.31749,-2.42986 130.19759,-61.83045 130.19759,-134.75072 0,-72.920717 -57.8801,-132.321247 -130.19759,-134.751147 z m -63.254146,48.492 c 3.53985,0 9.43388,2.07642 9.43388,8.7076 0,7.61942 -12.3265,13.68704 -16.19969,13.68704 -5.45511,0 -7.96583,-6.27023 -7.96583,-10.15037 0,-9.54323 11.7346,-12.24427 14.73164,-12.24427 z m 2.34891,24.07996 c 1.11253,0 2.22011,0.27986 3.21695,0.85548 l 20.527286,11.86123 c 1.99365,1.15126 3.21694,3.27715 3.21694,5.57947 v 22.560787 c 0,2.66947 -2.15637,4.82603 -4.82541,4.82603 -2.66906,0 -4.83823,-2.15656 -4.83823,-4.82603 V 100.9804 l -9.982796,-5.771227 v 27.042147 c 0,0.85465 -0.34045,1.6684 -0.94465,2.27265 l -26.19525,26.21239 -7.28924,29.13578 c -0.8199,3.28056 -4.14981,5.27634 -7.42963,4.45607 -3.27987,-0.82019 -5.2624,-4.15054 -4.44246,-7.43069 l 8.94876,-35.81366 c 0.14604,-0.58596 0.45928,-1.11285 0.89357,-1.53226 l 15.99545,-16.0108 V 89.272173 c 0,-1.15127 0.61167,-2.23331 1.60849,-2.8089 l 8.31047,-4.78791 c 0.99687,-0.57562 2.11731,-0.85548 3.22975,-0.85548 z m -16.65925,22.381877 v 13.67445 l -11.2849,11.27393 c -0.87465,0.87465 -2.06118,1.41697 -3.39568,1.41697 -2.66916,0 -4.83822,-2.15658 -4.83822,-4.82608 0,-1.33489 0.54249,-2.54701 1.417,-3.42165 z m 122.716846,3.42164 h 10.1998 c 1.17087,0 2.13189,0.94849 2.13189,2.11971 0,1.17088 -0.96102,2.11932 -2.13189,2.11932 h -10.1998 c -1.90264,0 -3.44674,1.53155 -3.44674,3.43456 0,1.2443 0.78956,2.36539 1.96592,2.77049 2.88747,0.99465 4.82543,3.71249 4.82543,6.76698 0,0.63294 -0.0781,1.25687 -0.24262,1.86396 h 36.3951 l 1.25104,-2.91089 h -9.34451 c -1.75629,0 -3.17866,-1.42268 -3.17866,-3.17919 0,-1.75647 1.42237,-3.17914 3.17866,-3.17914 h 14.57845 c 1.75629,0 3.17866,1.42267 3.17866,3.17914 0,1.75651 -1.42237,3.17919 -3.17866,3.17919 h -1.18724 l -1.91487,4.4815 7.96583,11.38891 c 2.77638,-1.33491 5.89195,-2.09387 9.17856,-2.09387 11.70878,0 21.20384,9.49632 21.20384,21.20719 0,11.71058 -9.49506,21.20726 -21.20384,21.20726 -10.71989,0 -19.57913,-7.95222 -20.99962,-18.28344 h -12.42103 l -29.27182,-22.38206 -1.68508,3.60075 c 4.37115,3.88406 7.13604,9.54933 7.13604,15.85749 0,11.71058 -9.49502,21.20726 -21.20385,21.20726 -11.70884,0 -21.19109,-9.49668 -21.19109,-21.20726 0,-11.71087 9.48225,-21.20719 21.19109,-21.20719 3.84984,0 7.45807,1.04049 10.57002,2.83422 l 6.38284,-13.69987 0.30628,-0.63827 c 0.17994,-0.38573 0.26808,-0.79978 0.26808,-1.22569 0,-1.2443 -0.78952,-2.35281 -1.9659,-2.75795 -2.88754,-0.99426 -4.82545,-3.72499 -4.82545,-6.77952 0,-4.24513 3.44051,-7.67359 7.68496,-7.67359 z m -100.606646,23.37779 25.659116,44.45748 c 0.88973,1.06312 1.44251,2.43778 1.44251,3.93244 0,3.38153 -2.74669,6.12871 -6.12753,6.12871 -2.28213,0 -4.27056,-1.25108 -5.32332,-3.10286 l -0.0767,0.036 -24.535716,-42.47861 8.96154,-8.96294 z m 102.176826,0.47243 -2.15741,3.39622 27.59949,21.11807 10.46789,-24.51429 z m 39.8163,2.9879 -9.57431,22.45836 h 7.08498 c 0.51545,-5.95003 3.50534,-11.19766 7.91475,-14.72139 z m -60.26698,6.29426 c -9.73752,0.247 -17.55286,8.2169 -17.55286,18.01548 0,9.95411 8.05994,18.02807 18.01241,18.02807 9.95253,0 18.02523,-8.07396 18.02523,-18.02807 0,-5.01908 -2.05189,-9.5511 -5.36162,-12.81873 l -4.05947,8.69473 c -0.66656,1.42947 -1.74905,2.62041 -3.11488,3.40908 l -4.4297,2.55347 c -1.01401,0.58562 -2.31242,0.23629 -2.89782,-0.77868 -0.58548,-1.01435 -0.23523,-2.31275 0.7787,-2.89835 l 4.42974,-2.55381 c 0.61224,-0.35463 1.09263,-0.89114 1.39144,-1.53192 l 4.468,-9.55041 c -2.69827,-1.61072 -5.85887,-2.54086 -9.22962,-2.54086 -0.1555,0 -0.30493,0 -0.45955,0 z m 78.90491,0 c -2.60807,0 -5.07682,0.56091 -7.31475,1.55765 l 10.353,14.78519 c 0.92345,1.31915 0.60388,3.13654 -0.71489,4.06028 -0.49003,0.3439 -1.07407,0.53618 -1.6723,0.53618 h -18.43371 c 1.39477,8.56613 8.82383,15.10425 17.78265,15.10425 9.95246,0 18.02522,-8.07396 18.02522,-18.02807 0,-9.95404 -8.07276,-18.01548 -18.02522,-18.01548 z m -11.387,4.04734 c -3.59324,2.93672 -6.03699,7.24557 -6.53606,12.11676 h 15.01246 z"
   id="path16853"
   inkscape:connector-curvature="0" /></svg>