<?xml version="1.0" encoding="UTF-8" standalone="no"?>
<!-- Created with Inkscape (http://www.inkscape.org/) -->

<svg
   xmlns:dc="http://purl.org/dc/elements/1.1/"
   xmlns:cc="http://creativecommons.org/ns#"
   xmlns:rdf="http://www.w3.org/1999/02/22-rdf-syntax-ns#"
   xmlns:svg="http://www.w3.org/2000/svg"
   xmlns="http://www.w3.org/2000/svg"
   version="1.1"
   width="227.34375"
   height="227.375"
   id="svg2989">
  <defs
     id="defs2991" />
  <metadata
     id="metadata2994">
    <rdf:RDF>
      <cc:Work
         rdf:about="">
        <dc:format>image/svg+xml</dc:format>
        <dc:type
           rdf:resource="http://purl.org/dc/dcmitype/StillImage" />
        <dc:title></dc:title>
      </cc:Work>
    </rdf:RDF>
  </metadata>
  <g
     transform="translate(-3.474109,-1.52558)"
     id="layer1">
    <g
       transform="translate(-37.557141,-22.38067)"
       id="g5">
      <path
         d="m 56.2,24.2 h 197 c 8.2,0 14.9,6.7 14.9,14.9 v 197 c 0,8.2 -6.7,14.9 -14.9,14.9 H 56.2 C 48,251 41.3,244.3 41.3,236.1 V 39 c 0,-8.1 6.7,-14.8 14.9,-14.8 l 0,0 z"
         id="path15"
         style="fill:#ffffff;fill-rule:evenodd;stroke:#000000;stroke-width:0.56690001;stroke-miterlimit:22.92560005" />
      <path
         d="m 56.2,30.5 h 196.9 c 4.7,0 8.5,3.8 8.5,8.5 v 197 c 0,4.7 -3.8,8.5 -8.5,8.5 h -37.8 v -23.7 h -8.6 v 23.7 H 166.4 V 100.4 H 186 L 154.7,46.2 123.4,100.4 H 143 V 244.5 H 102.7 V 220.8 H 94 v 23.7 H 56.2 c -4.7,0 -8.5,-3.8 -8.5,-8.5 V 39.1 c 0,-4.7 3.8,-8.6 8.5,-8.6 l 0,0 z M 94,129.4 h 8.6 v 23.8 H 94 v -23.8 l 0,0 z m 0,30.5 h 8.6 v 23.8 H 94 v -23.8 l 0,0 z m 0,30.5 h 8.6 v 23.8 H 94 v -23.8 l 0,0 z m 112.7,-61 h 8.6 v 23.8 h -8.6 v -23.8 l 0,0 z m 0,30.5 h 8.6 v 23.8 h -8.6 v -23.8 l 0,0 z m 0,30.5 h 8.6 v 23.8 h -8.6 v -23.8 l 0,0 z"
         id="path17"
         style="fill:#3298df;fill-rule:evenodd" />
    </g>
  </g>
</svg>
