<?xml version="1.0" encoding="UTF-8" standalone="no"?>
<!-- Generator: Adobe Illustrator 22.0.1, SVG Export Plug-In . SVG Version: 6.00 Build 0)  -->

<svg
   xmlns:dc="http://purl.org/dc/elements/1.1/"
   xmlns:cc="http://creativecommons.org/ns#"
   xmlns:rdf="http://www.w3.org/1999/02/22-rdf-syntax-ns#"
   xmlns:svg="http://www.w3.org/2000/svg"
   xmlns="http://www.w3.org/2000/svg"
   xmlns:sodipodi="http://sodipodi.sourceforge.net/DTD/sodipodi-0.dtd"
   xmlns:inkscape="http://www.inkscape.org/namespaces/inkscape"
   version="1.1"
   id="Слой_1"
   x="0px"
   y="0px"
   viewBox="0 0 340.74999 624.56249"
   xml:space="preserve"
   inkscape:version="0.48.2 r9819"
   width="340.74999"
   height="624.56249"
   sodipodi:docname="5.15.7.svg"><metadata
   id="metadata27"><rdf:RDF><cc:Work
       rdf:about=""><dc:format>image/svg+xml</dc:format><dc:type
         rdf:resource="http://purl.org/dc/dcmitype/StillImage" /></cc:Work></rdf:RDF></metadata><defs
   id="defs25" /><sodipodi:namedview
   pagecolor="#ffffff"
   bordercolor="#666666"
   borderopacity="1"
   objecttolerance="10"
   gridtolerance="10"
   guidetolerance="10"
   inkscape:pageopacity="0"
   inkscape:pageshadow="2"
   inkscape:window-width="640"
   inkscape:window-height="480"
   id="namedview23"
   showgrid="false"
   fit-margin-top="0"
   fit-margin-left="0"
   fit-margin-right="0"
   fit-margin-bottom="0"
   inkscape:zoom="0.28031833"
   inkscape:cx="170.61875"
   inkscape:cy="312.51876"
   inkscape:window-x="0"
   inkscape:window-y="0"
   inkscape:window-maximized="0"
   inkscape:current-layer="Слой_1" />
<style
   type="text/css"
   id="style3">
	.st0{fill-rule:evenodd;clip-rule:evenodd;fill:#FFFFFF;stroke:#000000;stroke-width:0.5669;stroke-miterlimit:22.9256;}
	.st1{fill-rule:evenodd;clip-rule:evenodd;fill:#3298DF;}
	.st2{fill-rule:evenodd;clip-rule:evenodd;fill:#B92B1E;}
	.st3{fill-rule:evenodd;clip-rule:evenodd;}
</style>
<g
   id="g5"
   transform="translate(-127.03125,-108.90627)">
	<path
   class="st0"
   d="m 138.5,109.2 h 317.8 c 6.1,0 11.2,5 11.2,11.2 v 148.1 c 0,6.1 -5,11.2 -11.2,11.2 H 138.5 c -6.1,0 -11.2,-5 -11.2,-11.2 V 120.3 c 0,-6.1 5,-11.1 11.2,-11.1 l 0,0 z"
   id="path7"
   inkscape:connector-curvature="0"
   style="fill:#ffffff;fill-rule:evenodd;stroke:#000000;stroke-width:0.56690001;stroke-miterlimit:22.92560005" />
	<path
   class="st1"
   d="m 138.5,274.8 h 101.8 v -21.4 h 6.4 v 21.4 H 347.8 V 114 h -41.5 v 108.3 h 14.5 L 297.4,263 273.9,222.3 h 14.5 V 114 h -41.7 v 21.6 h -6.4 V 114 h -44.4 v 108.3 h 14.5 L 186.9,263 163.4,222.3 h 14.5 V 114 h -39.4 c -3.5,0 -6.4,2.9 -6.4,6.4 v 148 c 0,3.5 2.9,6.4 6.4,6.4 l 0,0 z m 215.8,0 h 44.6 V 166.7 h -14.5 l 23.5,-40.7 23.5,40.7 h -14.5 v 108.2 h 39.3 c 3.5,0 6.4,-2.9 6.4,-6.4 v -148 c 0,-3.5 -2.9,-6.4 -6.4,-6.4 h -102 v 160.7 l 0.1,0 z m -114,-116.6 h 6.4 v -18.1 h -6.4 v 18.1 l 0,0 z m 0,22.7 h 6.4 v -18.1 h -6.4 v 18.1 l 0,0 z m 0,22.7 h 6.4 v -18.1 h -6.4 v 18.1 l 0,0 z m 0,22.6 h 6.4 v -18.1 h -6.4 v 18.1 l 0,0 z m 0,22.7 h 6.4 v -18.1 h -6.4 v 18.1 l 0,0 z"
   id="path9"
   inkscape:connector-curvature="0"
   style="fill:#3298df;fill-rule:evenodd" />
	<path
   class="st0"
   d="m 138.5,335.9 h 317.8 c 6.1,0 11.2,5 11.2,11.2 v 148.1 c 0,6.1 -5,11.2 -11.2,11.2 H 138.5 c -6.1,0 -11.2,-5 -11.2,-11.2 V 347.1 c 0,-6.1 5,-11.2 11.2,-11.2 l 0,0 z"
   id="path11"
   inkscape:connector-curvature="0"
   style="fill:#ffffff;fill-rule:evenodd;stroke:#000000;stroke-width:0.56690001;stroke-miterlimit:22.92560005" />
	<path
   class="st1"
   d="m 240.3,475.6 h 6.4 v -18.1 h -6.4 v 18.1 l 0,0 z M 347.8,340.7 v 21.6 h 6.4 v -21.6 h 102 c 3.5,0 6.4,2.9 6.4,6.4 v 148 c 0,3.5 -2.9,6.4 -6.4,6.4 H 416.9 V 393.4 h 14.5 l -23.5,-40.7 -23.5,40.7 h 14.5 v 108.2 h -44.6 v -21.4 h -6.4 v 21.4 h -41.5 v -44.4 c 11.4,-3.8 19.6,-14.5 19.6,-27.2 0,-12.7 -8.2,-23.4 -19.6,-27.2 v -9.4 h 14.5 l -23.5,-40.7 -23.5,40.7 h 14.5 v 9.4 c -11.4,3.8 -19.6,14.5 -19.6,27.2 0,12.7 8.2,23.4 19.6,27.2 v 44.4 h -41.7 v -21.4 h -6.4 v 21.4 H 138.5 c -3.5,0 -6.4,-2.9 -6.4,-6.4 v -148 c 0,-3.5 2.9,-6.4 6.4,-6.4 h 39.4 v 108.3 h -14.5 l 23.5,40.7 23.5,-40.7 H 195.9 V 340.7 h 44.4 v 21.6 h 6.4 v -21.6 h 101.1 l 0,0 z m 0,134.9 h 6.4 v -18.1 h -6.4 v 18.1 l 0,0 z m 0,-22.6 h 6.4 v -18.1 h -6.4 V 453 l 0,0 z m 0,-22.7 h 6.4 v -18.1 h -6.4 v 18.1 l 0,0 z m 0,-22.6 h 6.4 v -18.1 h -6.4 v 18.1 l 0,0 z m 0,-22.7 h 6.4 v -18.1 h -6.4 V 385 l 0,0 z m -107.5,68 h 6.4 v -18.1 h -6.4 V 453 l 0,0 z m 0,-22.7 h 6.4 v -18.1 h -6.4 v 18.1 l 0,0 z m 0,-22.6 h 6.4 v -18.1 h -6.4 v 18.1 l 0,0 z m 0,-22.7 h 6.4 v -18.1 h -6.4 V 385 l 0,0 z"
   id="path13"
   inkscape:connector-curvature="0"
   style="fill:#3298df;fill-rule:evenodd" />
	<path
   class="st2"
   d="m 297.4,401.4 c 15.8,0 28.6,12.8 28.6,28.6 0,15.8 -12.8,28.6 -28.6,28.6 -15.8,0 -28.6,-12.8 -28.6,-28.6 -0.1,-15.8 12.7,-28.6 28.6,-28.6 l 0,0 z m 0,5.4 c 12.8,0 23.2,10.4 23.2,23.2 0,12.8 -10.4,23.2 -23.2,23.2 -12.8,0 -23.2,-10.4 -23.2,-23.2 -0.1,-12.8 10.3,-23.2 23.2,-23.2 l 0,0 z"
   id="path15"
   inkscape:connector-curvature="0"
   style="fill:#b92b1e;fill-rule:evenodd" />
	<path
   class="st3"
   d="m 282.2,424.4 h 4.6 c 0.6,0 1.1,0.5 1.1,1.1 v 2.7 c 0,0.6 -0.5,1.1 -1.1,1.1 h -6.2 c -1,0 -1.2,-1.1 -0.8,-1.7 l 1.8,-2.7 c 0.1,-0.3 0.2,-0.5 0.6,-0.5 l 0,0 z m 25.6,9.8 c 1.8,0 3.3,1.5 3.3,3.3 0,1.8 -1.5,3.3 -3.3,3.3 -1.8,0 -3.3,-1.5 -3.3,-3.3 0,-1.8 1.5,-3.3 3.3,-3.3 l 0,0 z m 0,1.7 c 0.9,0 1.7,0.8 1.7,1.7 0,0.9 -0.8,1.7 -1.7,1.7 -0.9,0 -1.7,-0.8 -1.7,-1.7 0,-1 0.8,-1.7 1.7,-1.7 l 0,0 z M 285,434.2 c 1.8,0 3.3,1.5 3.3,3.3 0,1.8 -1.5,3.3 -3.3,3.3 -1.8,0 -3.3,-1.5 -3.3,-3.3 0,-1.8 1.5,-3.3 3.3,-3.3 l 0,0 z m 0,1.7 c 0.9,0 1.7,0.8 1.7,1.7 0,0.9 -0.8,1.7 -1.7,1.7 -0.9,0 -1.7,-0.8 -1.7,-1.7 0,-1 0.8,-1.7 1.7,-1.7 l 0,0 z m 23.7,-2 h 6.8 v 3.7 h -3.8 c -0.1,-1.9 -1.4,-3.4 -3,-3.7 l 0,0 z m -19,0 H 307 c -1.7,0.4 -3,1.9 -3,3.7 h -15.1 c 0,-2.1 -1.7,-3.7 -3.8,-3.7 -2.1,0 -3.8,1.7 -3.8,3.7 h -2 c -1.1,0 -1.9,-0.9 -1.9,-1.9 v -1.7 -4 -0.6 c 0,-0.3 0.2,-0.6 0.4,-0.9 l 2.9,-4.3 c 0.3,-0.5 0.7,-0.8 1.3,-0.8 h 5.6 c 1.2,0 2.1,1 2.1,2.1 v 4.6 3.8 l 0,0 z m 0.9,-0.9 h 24.9 v -13.6 c 0,-1 -0.8,-1.8 -1.8,-1.8 h -21.2 c -1,0 -1.8,0.8 -1.8,1.8 V 433 l -0.1,0 z"
   id="path17"
   inkscape:connector-curvature="0"
   style="fill-rule:evenodd" />
	<path
   class="st0"
   d="m 195.2,562.7 h 204.3 c 6.1,0 11.2,5 11.2,11.2 V 722 c 0,6.1 -5,11.2 -11.2,11.2 H 195.2 c -6.1,0 -11.2,-5 -11.2,-11.2 V 573.9 c 0,-6.2 5,-11.2 11.2,-11.2 l 0,0 z"
   id="path19"
   inkscape:connector-curvature="0"
   style="fill:#ffffff;fill-rule:evenodd;stroke:#000000;stroke-width:0.56690001;stroke-miterlimit:22.92560005" />
	<path
   class="st1"
   d="m 195.2,567.5 h 37.2 V 675.7 H 218 l 23.5,40.7 23.5,-40.7 H 250.5 V 567.5 h 43.7 v 160.9 h -98.9 c -3.5,0 -6.4,-2.9 -6.4,-6.4 V 574 c -0.1,-3.6 2.8,-6.5 6.3,-6.5 l 0,0 z m 105.4,0 h 98.9 c 3.5,0 6.4,2.9 6.4,6.4 v 148 c 0,3.5 -2.9,6.4 -6.4,6.4 H 362.3 V 620.1 h 14.5 l -23.5,-40.7 -23.5,40.7 h 14.5 V 728.3 H 300.6 V 567.5 l 0,0 z"
   id="path21"
   inkscape:connector-curvature="0"
   style="fill:#3298df;fill-rule:evenodd" />
</g>
</svg>