<?xml version="1.0" encoding="UTF-8" standalone="no"?>
<!-- Generator: Adobe Illustrator 22.0.1, SVG Export Plug-In . SVG Version: 6.00 Build 0)  -->

<svg
   xmlns:dc="http://purl.org/dc/elements/1.1/"
   xmlns:cc="http://creativecommons.org/ns#"
   xmlns:rdf="http://www.w3.org/1999/02/22-rdf-syntax-ns#"
   xmlns:svg="http://www.w3.org/2000/svg"
   xmlns="http://www.w3.org/2000/svg"
   xmlns:sodipodi="http://sodipodi.sourceforge.net/DTD/sodipodi-0.dtd"
   xmlns:inkscape="http://www.inkscape.org/namespaces/inkscape"
   version="1.1"
   id="Слой_1"
   x="0px"
   y="0px"
   viewBox="0 0 340.74999 171.0625"
   xml:space="preserve"
   inkscape:version="0.48.2 r9819"
   width="340.74999"
   height="171.0625"
   sodipodi:docname="5.15.1.svg"><metadata
   id="metadata15"><rdf:RDF><cc:Work
       rdf:about=""><dc:format>image/svg+xml</dc:format><dc:type
         rdf:resource="http://purl.org/dc/dcmitype/StillImage" /></cc:Work></rdf:RDF></metadata><defs
   id="defs13" /><sodipodi:namedview
   pagecolor="#ffffff"
   bordercolor="#666666"
   borderopacity="1"
   objecttolerance="10"
   gridtolerance="10"
   guidetolerance="10"
   inkscape:pageopacity="0"
   inkscape:pageshadow="2"
   inkscape:window-width="640"
   inkscape:window-height="480"
   id="namedview11"
   showgrid="false"
   fit-margin-top="0"
   fit-margin-left="0"
   fit-margin-right="0"
   fit-margin-bottom="0"
   inkscape:zoom="0.28031833"
   inkscape:cx="171.61875"
   inkscape:cy="86.01876"
   inkscape:window-x="0"
   inkscape:window-y="0"
   inkscape:window-maximized="0"
   inkscape:current-layer="Слой_1" />
<style
   type="text/css"
   id="style3">
	.st0{fill-rule:evenodd;clip-rule:evenodd;fill:#FFFFFF;stroke:#000000;stroke-width:0.5669;stroke-miterlimit:22.9256;}
	.st1{fill-rule:evenodd;clip-rule:evenodd;fill:#3298DF;}
</style>
<g
   id="g5"
   transform="translate(-126.03125,-335.90627)">
	<path
   class="st0"
   d="m 137.5,336.2 h 317.8 c 6.1,0 11.2,5 11.2,11.2 v 148.1 c 0,6.1 -5,11.2 -11.2,11.2 H 137.5 c -6.1,0 -11.2,-5 -11.2,-11.2 V 347.3 c 0,-6.1 5,-11.1 11.2,-11.1 l 0,0 z"
   id="path7"
   inkscape:connector-curvature="0"
   style="fill:#ffffff;fill-rule:evenodd;stroke:#000000;stroke-width:0.56690001;stroke-miterlimit:22.92560005" />
	<path
   class="st1"
   d="m 239.3,415.1 h 6.4 v 18.1 h -6.4 v -18.1 l 0,0 z M 137.5,341 h 317.7 c 3.5,0 6.4,2.9 6.4,6.4 v 148 c 0,3.5 -2.9,6.4 -6.4,6.4 h -62.3 v -91.9 c 0,-5.9 4.8,-10.7 10.7,-10.7 h 5.5 v 14.6 l 40.7,-23.5 -40.7,-23.5 v 14.6 h -5.6 c -15.7,0 -28.6,12.9 -28.6,28.6 v 91.9 h -21.4 v -18.3 h -6.4 v 18.3 H 305.3 V 393.5 h 14.5 l -23.5,-40.7 -23.5,40.7 h 14.5 v 108.3 h -41.7 v -18.3 h -6.4 v 18.3 H 217.5 V 393.5 H 232 L 208.5,352.8 185,393.5 h 14.5 l -0.1,26.8 c -3.3,-1.3 -6.8,-2 -10.5,-2 h -5.1 v -14.6 l -40.7,23.5 40.7,23.5 v -14.6 h 5 c 5.5,0 10,4.2 10.7,9.5 l 0.1,56.3 h -62.1 c -3.5,0 -6.4,-2.9 -6.4,-6.4 v -148 c 0,-3.6 2.9,-6.5 6.4,-6.5 l 0,0 z m 101.8,96.9 h 6.4 V 456 h -6.4 v -18.1 l 0,0 z m 0,22.8 h 6.4 v 18.1 h -6.4 v -18.1 l 0,0 z m 107.8,-45.6 h 6.4 v 18.1 h -6.4 v -18.1 l 0,0 z m 0,22.8 h 6.4 V 456 h -6.4 v -18.1 l 0,0 z m 0,22.8 h 6.4 v 18.1 h -6.4 v -18.1 l 0,0 z"
   id="path9"
   inkscape:connector-curvature="0"
   style="fill:#3298df;fill-rule:evenodd" />
</g>
</svg>