<?xml version="1.0" encoding="UTF-8" standalone="no"?>
<!-- Generator: Adobe Illustrator 22.0.1, SVG Export Plug-In . SVG Version: 6.00 Build 0)  -->

<svg
   xmlns:dc="http://purl.org/dc/elements/1.1/"
   xmlns:cc="http://creativecommons.org/ns#"
   xmlns:rdf="http://www.w3.org/1999/02/22-rdf-syntax-ns#"
   xmlns:svg="http://www.w3.org/2000/svg"
   xmlns="http://www.w3.org/2000/svg"
   xmlns:sodipodi="http://sodipodi.sourceforge.net/DTD/sodipodi-0.dtd"
   xmlns:inkscape="http://www.inkscape.org/namespaces/inkscape"
   version="1.1"
   id="Слой_1"
   x="0px"
   y="0px"
   viewBox="0 0 189.75 284.06249"
   xml:space="preserve"
   inkscape:version="0.48.2 r9819"
   width="189.75"
   height="284.06249"
   sodipodi:docname="5.17.svg"><metadata
   id="metadata17"><rdf:RDF><cc:Work
       rdf:about=""><dc:format>image/svg+xml</dc:format><dc:type
         rdf:resource="http://purl.org/dc/dcmitype/StillImage" /></cc:Work></rdf:RDF></metadata><defs
   id="defs15" /><sodipodi:namedview
   pagecolor="#ffffff"
   bordercolor="#666666"
   borderopacity="1"
   objecttolerance="10"
   gridtolerance="10"
   guidetolerance="10"
   inkscape:pageopacity="0"
   inkscape:pageshadow="2"
   inkscape:window-width="640"
   inkscape:window-height="480"
   id="namedview13"
   showgrid="false"
   fit-margin-top="0"
   fit-margin-left="0"
   fit-margin-right="0"
   fit-margin-bottom="0"
   inkscape:zoom="0.28031833"
   inkscape:cx="95.618754"
   inkscape:cy="142.01876"
   inkscape:window-x="0"
   inkscape:window-y="0"
   inkscape:window-maximized="0"
   inkscape:current-layer="Слой_1" />
<style
   type="text/css"
   id="style3">
	.st0{fill-rule:evenodd;clip-rule:evenodd;fill:#FFFFFF;stroke:#000000;stroke-width:0.5669;stroke-miterlimit:22.9256;}
	.st1{fill-rule:evenodd;clip-rule:evenodd;fill:#3298DF;}
	.st2{fill-rule:evenodd;clip-rule:evenodd;}
</style>
<g
   id="g5"
   transform="translate(-202.03125,-278.90627)">
	<path
   class="st0"
   d="M 216.8,279.2 H 377 c 8,0 14.5,6.5 14.5,14.5 v 254.5 c 0,8 -6.5,14.5 -14.5,14.5 H 216.8 c -8,0 -14.5,-6.5 -14.5,-14.5 V 293.7 c 0,-8 6.5,-14.5 14.5,-14.5 l 0,0 z"
   id="path7"
   inkscape:connector-curvature="0"
   style="fill:#ffffff;fill-rule:evenodd;stroke:#000000;stroke-width:0.56690001;stroke-miterlimit:22.92560005" />
	<path
   class="st1"
   d="m 216.9,285.4 h 160 c 4.6,0 8.3,3.8 8.3,8.3 v 254.4 c 0,4.6 -3.8,8.3 -8.3,8.3 h -160 c -4.6,0 -8.3,-3.8 -8.3,-8.3 V 293.7 c 0,-4.6 3.7,-8.3 8.3,-8.3 l 0,0 z m 14.3,41.2 h 131.5 c 6.1,0 11.1,5 11.1,11.1 v 131.5 c 0,6.1 -5,11.1 -11.1,11.1 H 231.2 c -6.1,0 -11.1,-5 -11.1,-11.1 V 337.7 c 0,-6.1 5,-11.1 11.1,-11.1 l 0,0 z"
   id="path9"
   inkscape:connector-curvature="0"
   style="fill:#3298df;fill-rule:evenodd" />
	<path
   class="st2"
   d="m 296.9,381.7 h -10.4 l -6.4,-7.6 16.8,-15.3 v 0 0 l 16.8,15.3 -6.4,7.6 h -10.4 l 0,0 z m -11.9,2.7 h 11.9 11.9 l 8.8,-10.4 -19.6,-17.8 0,-5.8 h -1.2 -1.2 l 0,5.8 -19.4,17.8 8.8,10.4 0,0 z m 46,54.2 c -0.9,3.4 -4,5.9 -7.7,5.9 -4.4,0 -7.9,-3.6 -7.9,-7.9 0,-4.4 3.6,-7.9 7.9,-7.9 3.7,0 6.8,2.5 7.7,6 0.9,-3.4 4,-6 7.7,-6 4.4,0 7.9,3.6 7.9,7.9 0,4.4 -3.6,7.9 -7.9,7.9 -3.7,0.1 -6.8,-2.4 -7.7,-5.9 l 0,0 z m -68.2,0 c -0.9,3.4 -4,5.9 -7.7,5.9 -4.4,0 -7.9,-3.6 -7.9,-7.9 0,-4.4 3.6,-7.9 7.9,-7.9 3.7,0 6.8,2.5 7.7,6 0.9,-3.4 4,-6 7.7,-6 4.4,0 7.9,3.6 7.9,7.9 0,4.4 -3.6,7.9 -7.9,7.9 -3.8,0.1 -6.9,-2.4 -7.7,-5.9 l 0,0 z m 32,-1.4 h 10.2 8.7 c -0.4,-4.8 2.9,-8.5 5.4,-9.2 l -10.2,0 0,0 -9,0 -9,0 0,0 -16.3,0 c 2.5,0.7 5.8,4.4 5.4,9.2 h 14.8 l 0,0 z m -45.5,-50 h 44.3 6.6 44.3 c 4.4,0 6.3,2.5 7.9,5.6 1.2,2.3 2.5,4.4 3.7,6.6 1.2,2.1 2.4,4.3 3.7,6.4 1.7,2.8 2,4.4 2,7.5 v 12.8 c 0,5.7 -4.7,10.4 -10.4,10.4 h -3.2 c 0,-5.2 -4.2,-9.5 -9.5,-9.5 -27.9,0 -55.7,0 -83.6,0 -5.2,0 -9.5,4.2 -9.5,9.5 h -3.2 c -5.7,0 -10.4,-4.7 -10.4,-10.4 v -12.8 c 0,-3.2 0.3,-4.7 2,-7.5 1.3,-2.2 2.5,-4.3 3.7,-6.4 1.2,-2.2 2.5,-4.3 3.7,-6.6 1.7,-3.1 3.5,-5.6 7.9,-5.6 l 0,0 z m 97.9,4.4 h -6.7 c -1.8,0 -3.3,1.5 -3.3,3.3 v 11.2 c 0,1.8 1.5,3.3 3.3,3.3 h 12.9 c 3.7,0 3.9,-3.1 2.6,-5.2 l -5.5,-9.2 c -0.9,-1.6 -1.5,-3.4 -3.3,-3.4 l 0,0 z m -100.6,0 h 6.7 c 1.8,0 3.3,1.5 3.3,3.3 v 11.2 c 0,1.8 -1.5,3.3 -3.3,3.3 h -12.9 c -3.7,0 -3.9,-3.1 -2.6,-5.2 l 5.5,-9.2 c 0.9,-1.6 1.5,-3.4 3.3,-3.4 l 0,0 z m 15.8,0 h 16.9 c 1.8,0 3.3,1.5 3.3,3.3 v 11.2 c 0,1.8 -1.5,3.3 -3.3,3.3 h -16.9 c -1.8,0 -3.3,-1.5 -3.3,-3.3 v -11.2 c 0.1,-1.8 1.5,-3.3 3.3,-3.3 l 0,0 z m 52.1,0 h 16.9 c 1.8,0 3.3,1.5 3.3,3.3 v 11.2 c 0,1.8 -1.5,3.3 -3.3,3.3 h -16.9 c -1.8,0 -3.3,-1.5 -3.3,-3.3 v -11.2 c 0,-1.8 1.5,-3.3 3.3,-3.3 l 0,0 z m -26,0 h 16.9 c 1.8,0 3.3,1.5 3.3,3.3 v 11.2 c 0,1.8 -1.5,3.3 -3.3,3.3 h -16.9 c -1.8,0 -3.3,-1.5 -3.3,-3.3 v -11.2 c 0,-1.8 1.5,-3.3 3.3,-3.3 l 0,0 z"
   id="path11"
   inkscape:connector-curvature="0"
   style="fill-rule:evenodd" />
</g>
</svg>