<?xml version="1.0" encoding="UTF-8" standalone="no"?>
<!-- Generator: Adobe Illustrator 22.0.1, SVG Export Plug-In . SVG Version: 6.00 Build 0)  -->

<svg
   xmlns:dc="http://purl.org/dc/elements/1.1/"
   xmlns:cc="http://creativecommons.org/ns#"
   xmlns:rdf="http://www.w3.org/1999/02/22-rdf-syntax-ns#"
   xmlns:svg="http://www.w3.org/2000/svg"
   xmlns="http://www.w3.org/2000/svg"
   xmlns:sodipodi="http://sodipodi.sourceforge.net/DTD/sodipodi-0.dtd"
   xmlns:inkscape="http://www.inkscape.org/namespaces/inkscape"
   version="1.1"
   id="Слой_1"
   x="0px"
   y="0px"
   viewBox="0 0 284.06249 284.06249"
   xml:space="preserve"
   inkscape:version="0.48.2 r9819"
   width="284.06249"
   height="284.06249"
   sodipodi:docname="5.19.1.svg"><metadata
   id="metadata17"><rdf:RDF><cc:Work
       rdf:about=""><dc:format>image/svg+xml</dc:format><dc:type
         rdf:resource="http://purl.org/dc/dcmitype/StillImage" /></cc:Work></rdf:RDF></metadata><defs
   id="defs15" /><sodipodi:namedview
   pagecolor="#ffffff"
   bordercolor="#666666"
   borderopacity="1"
   objecttolerance="10"
   gridtolerance="10"
   guidetolerance="10"
   inkscape:pageopacity="0"
   inkscape:pageshadow="2"
   inkscape:window-width="640"
   inkscape:window-height="480"
   id="namedview13"
   showgrid="false"
   fit-margin-top="0"
   fit-margin-left="0"
   fit-margin-right="0"
   fit-margin-bottom="0"
   inkscape:zoom="0.28031833"
   inkscape:cx="142.61875"
   inkscape:cy="142.01876"
   inkscape:window-x="0"
   inkscape:window-y="0"
   inkscape:window-maximized="0"
   inkscape:current-layer="Слой_1" />
<style
   type="text/css"
   id="style3">
	.st0{fill-rule:evenodd;clip-rule:evenodd;fill:#FFFFFF;stroke:#000000;stroke-width:0.5669;stroke-miterlimit:22.9256;}
	.st1{fill-rule:evenodd;clip-rule:evenodd;fill:#3298DF;}
</style>
<g
   id="g5"
   transform="translate(-155.03125,-278.90627)">
	<path
   class="st0"
   d="m 173.9,279.2 h 246.3 c 10.2,0 18.6,8.4 18.6,18.6 v 246.3 c 0,10.2 -8.4,18.6 -18.6,18.6 H 173.9 c -10.2,0 -18.6,-8.4 -18.6,-18.6 V 297.8 c 0,-10.3 8.3,-18.6 18.6,-18.6 l 0,0 z"
   id="path7"
   inkscape:connector-curvature="0"
   style="fill:#ffffff;fill-rule:evenodd;stroke:#000000;stroke-width:0.56690001;stroke-miterlimit:22.92560005" />
	<path
   class="st1"
   d="m 173.9,287.1 h 246.2 c 5.9,0 10.7,4.8 10.7,10.7 V 544 c 0,5.9 -4.8,10.7 -10.7,10.7 -167.8,0 -78.3,0 -246.2,0 -5.9,0 -10.7,-4.8 -10.7,-10.7 V 297.8 c 0.1,-5.9 4.9,-10.7 10.7,-10.7 l 0,0 z m 115.9,223.2 h 124.5 c 4.9,0 5.2,-4.3 3.9,-6.4 -6.3,-10.5 -13.3,-23 -19.5,-33.7 L 301.9,301.7 c -3.1,-5.4 -6.6,-5.4 -9.7,0 L 182,493.3 c -2,3.5 -4,7.1 -6.2,10.6 -1.3,2.1 -0.5,6.4 3.9,6.4 36.8,0 73.4,0 110.1,0 l 0,0 z"
   id="path9"
   inkscape:connector-curvature="0"
   style="fill:#3298df;fill-rule:evenodd" />
	<path
   d="m 279.4,347.5 c -2.8,10.8 6.1,20.6 16.9,15.2 5.9,-3 11.8,-7.2 11.7,-15.1 -0.3,-16.1 -24.9,-14.6 -28.6,-0.1 l 0,0 z m 60.7,37.9 c -1.1,-4.9 -3.9,-6 -7.7,-8.3 -2.5,-1.5 -23.2,-13.7 -24.9,-14.1 -4.9,-1.2 -7.1,0.7 -11.5,3.2 -1.6,1 -3.3,1.9 -4.9,2.9 -3.3,2 -3.3,3 -3.3,6.6 -0.1,5.6 0.2,41 -0.1,41.4 -0.7,1 -20.2,19.9 -21,21.2 -0.9,1.6 -2.2,7.5 -2.6,9.4 l -8.7,36.8 c -1.2,5.2 2.7,10.2 8,10.2 3.8,0 7.1,-2.6 8,-6.3 1,-4.4 7.9,-34.4 8.8,-36.1 0.9,-1.8 5.9,-6.3 7.6,-8 6.8,-6.8 13.7,-13.7 20.5,-20.6 1.2,-1.2 5.4,-5 6,-6.4 0.9,-2 0.6,-16 0.6,-18 l 0,-17.3 c 2,0.5 11.5,6.8 12,7.8 0.5,1.1 0.3,22.1 0.3,25 0,3.6 2.9,6.5 6.5,6.5 3.6,0 6.5,-2.9 6.5,-6.5 v -29.4 l -0.1,0 z m -55.6,4.3 -24,24 c -1.2,1.2 -1.9,2.9 -1.9,4.6 0,5.7 6.9,8.7 11,4.6 l 14.9,-14.7 v -18.5 l 0,0 z m 27.9,35 -12.4,12.1 31.2,53.6 c 3.7,6.3 12.8,5.5 15.2,-1.3 0.8,-2.3 0.7,-4.8 -0.6,-7 l -33.4,-57.4 0,0 z m -84.8,52.1 h 19 L 236,504 h -26.2 l 17.8,-27.2 0,0 z m 139.3,0 h -19 l 10.5,27.3 h 26.2 l -17.7,-27.3 0,0 z m -78.1,0 h 16.8 l 3.6,27.3 h -24.1 l 3.7,-27.3 0,0 z"
   id="path11"
   inkscape:connector-curvature="0" />
</g>
</svg>