<?xml version="1.0" encoding="UTF-8" standalone="no"?>
<!-- Generator: Adobe Illustrator 22.0.1, SVG Export Plug-In . SVG Version: 6.00 Build 0)  -->

<svg
   xmlns:dc="http://purl.org/dc/elements/1.1/"
   xmlns:cc="http://creativecommons.org/ns#"
   xmlns:rdf="http://www.w3.org/1999/02/22-rdf-syntax-ns#"
   xmlns:svg="http://www.w3.org/2000/svg"
   xmlns="http://www.w3.org/2000/svg"
   xmlns:sodipodi="http://sodipodi.sourceforge.net/DTD/sodipodi-0.dtd"
   xmlns:inkscape="http://www.inkscape.org/namespaces/inkscape"
   version="1.1"
   id="Слой_1"
   x="0px"
   y="0px"
   viewBox="0 0 436.87617 128.64303"
   xml:space="preserve"
   sodipodi:docname="5.26.svg"
   inkscape:version="0.48.2 r9819"
   width="436.87617"
   height="128.64303"><metadata
   id="metadata15"><rdf:RDF><cc:Work
       rdf:about=""><dc:format>image/svg+xml</dc:format><dc:type
         rdf:resource="http://purl.org/dc/dcmitype/StillImage" /><dc:title /></cc:Work></rdf:RDF></metadata><defs
   id="defs13" /><sodipodi:namedview
   pagecolor="#ffffff"
   bordercolor="#666666"
   borderopacity="1"
   objecttolerance="10"
   gridtolerance="10"
   guidetolerance="10"
   inkscape:pageopacity="0"
   inkscape:pageshadow="2"
   inkscape:window-width="1366"
   inkscape:window-height="705"
   id="namedview11"
   showgrid="false"
   inkscape:zoom="0.39642998"
   inkscape:cx="-106.95428"
   inkscape:cy="28.83914"
   inkscape:window-x="-8"
   inkscape:window-y="-8"
   inkscape:window-maximized="1"
   inkscape:current-layer="Layer_2_1_-5"
   fit-margin-top="0"
   fit-margin-left="0"
   fit-margin-right="0"
   fit-margin-bottom="0" />
<style
   type="text/css"
   id="style2">
	.st0{fill-rule:evenodd;clip-rule:evenodd;fill:#FFFFFF;stroke:#000000;stroke-width:0.5669;stroke-miterlimit:22.9256;}
	.st1{fill-rule:evenodd;clip-rule:evenodd;fill:#3298DF;}
</style>

<g
   transform="translate(-240.7863,57.549685)"
   id="Layer_2_1_"><g
     id="g20"><g
       transform="matrix(0.59026324,0,0,0.59159737,279.6991,-266.36509)"
       id="Layer_2_1_-5"><rect
         y="352.99875"
         x="-65.924484"
         height="217.42032"
         width="740.13788"
         id="rect8314"
         style="color:#000000;fill:#ffffff;fill-opacity:1;fill-rule:nonzero;stroke:none;stroke-width:2.34449244;marker:none;visibility:visible;display:inline;overflow:visible;enable-background:accumulate"
         rx="31.720196"
         ry="27.954041" /><rect
         ry="27.874172"
         rx="31.689983"
         style="color:#000000;fill:#ffffff;fill-opacity:1;fill-rule:nonzero;stroke:none;stroke-width:2.34002566;marker:none;visibility:visible;display:inline;overflow:visible;enable-background:accumulate"
         id="rect7863"
         width="739.43292"
         height="216.7991"
         x="-65.924484"
         y="352.99875" /><path
         inkscape:connector-curvature="0"
         style="color:#000000;fill:#3298df;fill-opacity:1;fill-rule:nonzero;stroke:none;stroke-width:2.34002566;marker:none;visibility:visible;display:inline;overflow:visible;enable-background:accumulate"
         d="m -34.234515,359.193 c -13.654861,0 -24.647781,9.66924 -24.647781,21.67991 v 161.05076 c 0,12.01067 10.99292,21.67991 24.647781,21.67991 H 641.81842 c 13.65489,0 24.64778,-9.66924 24.64778,-21.67991 V 380.87291 c 0,-12.01067 -10.99289,-21.67991 -24.64778,-21.67991 z m 63.93014,53.42549 c 14.500871,0.35268 25.296906,5.1173 32.394204,14.30488 7.09711,9.18772 10.630791,20.68312 10.607339,34.47492 0.02344,13.79189 -3.510229,25.28729 -10.607339,34.47493 -7.09729,9.18766 -17.893325,13.95229 -32.394204,14.30488 -14.500987,-0.35259 -25.319032,-5.11722 -32.416214,-14.30488 -7.0972231,-9.18764 -10.630933,-20.68304 -10.607339,-34.47493 -0.02361,-13.79179 3.5101159,-25.28719 10.607339,-34.47492 7.097182,-9.18758 17.915227,-13.9522 32.416214,-14.30488 z m 331.578445,0 c 14.50087,0.35268 25.29692,5.1173 32.39421,14.30488 7.09712,9.18772 10.63079,20.68312 10.60734,34.47492 0.0235,13.79189 -3.51023,25.28729 -10.60734,34.47493 -7.0973,9.18766 -17.89334,13.95229 -32.39421,14.30488 -14.50098,-0.35259 -25.31904,-5.11722 -32.41621,-14.30488 -7.09723,-9.18764 -10.63093,-20.68304 -10.60734,-34.47493 -0.0236,-13.79179 3.51011,-25.28719 10.60734,-34.47492 7.09717,-9.18758 17.91523,-13.9522 32.41621,-14.30488 z m 216.61421,0 c 14.50091,0.35268 25.31893,5.1173 32.41623,14.30488 7.09713,9.18772 10.6308,20.68312 10.60735,34.47492 0.0233,13.79189 -3.51022,25.28729 -10.60735,34.47493 -7.0973,9.18766 -17.91532,13.95229 -32.41623,14.30488 -14.50094,-0.35259 -25.29701,-5.11722 -32.39419,-14.30488 -7.09721,-9.18764 -10.63091,-20.68304 -10.60734,-34.47493 -0.0237,-13.79179 3.51013,-25.28719 10.60734,-34.47492 7.09718,-9.18758 17.89325,-13.9522 32.39419,-14.30488 z m -475.59179,2.32285 h 35.65123 c 13.03899,0.53241 22.28196,4.11349 27.72874,10.74318 5.4466,6.62984 8.08745,13.11449 7.9225,19.45384 -0.16515,6.33947 -3.46621,12.82413 -9.90312,19.45385 -6.43708,6.6298 -15.01984,10.21089 -25.74812,10.74317 h -17.16541 v 32.51986 h -18.48582 z m 120.24588,0 h 66.02079 v 92.9139 h -18.48582 v -78.97681 h -29.04915 c 0.008,0.35854 -0.004,3.5152 -0.044,9.46561 -0.0409,5.95054 -0.14269,12.54201 -0.3301,19.78291 -0.18751,7.24099 -0.51435,12.97861 -0.9463,17.20843 -1.62785,10.66787 -5.26356,18.49032 -10.91544,23.48011 -5.65195,4.98981 -11.09643,8.1859 -16.32914,9.56239 -5.23276,1.37649 -8.0364,1.97227 -8.40665,1.80022 l -3.01495,-15.6018 c 0.20375,0.0276 1.76602,-0.48853 4.68747,-1.54857 2.92143,-1.06001 5.98296,-2.82428 9.1769,-5.30383 3.19387,-2.47952 5.29479,-5.83476 6.31598,-10.06567 0.43196,-2.5809 0.75881,-7.48472 0.9463,-14.71137 0.18744,-7.22656 0.28933,-15.22753 0.33011,-24.00276 0.0408,-8.77509 0.0521,-16.77606 0.044,-24.00276 z m 211.33257,0 h 40.93291 c 9.95407,0.29736 17.57795,3.01843 22.88718,8.16868 5.3091,5.15042 7.98135,10.94652 8.03253,17.38265 -0.0512,3.6053 -1.40304,7.14766 -4.07126,10.60767 -2.66844,3.46012 -6.33105,6.11204 -11.00346,7.9751 5.39158,1.74218 9.79301,4.3554 13.20413,7.83961 3.411,3.4843 5.17155,7.83967 5.28167,13.06602 -0.19658,7.76702 -3.44734,14.29038 -9.72704,19.58935 -6.27991,5.29897 -14.42251,8.06705 -24.42771,8.28482 H 433.87494 z M 29.695625,427.71701 c -7.399844,0.0969 -13.407787,3.09722 -18.001671,9.00103 -4.5939715,5.90395 -6.948719,14.13075 -7.0862331,24.68025 0.1375141,10.5496 2.4922708,18.7764 7.0862331,24.68026 4.593884,5.9039 10.601819,8.90426 18.001671,9.00103 7.399743,-0.0968 13.385665,-3.09713 17.97966,-9.00103 4.59386,-5.90386 6.970621,-14.13066 7.10824,-24.68026 -0.137619,-10.5495 -2.51438,-18.7763 -7.10824,-24.68025 -4.593995,-5.90381 -10.579925,-8.90417 -17.97966,-9.00103 z m 331.578445,0 c -7.39985,0.0969 -13.40778,3.09722 -18.00167,9.00103 -4.59397,5.90395 -6.94872,14.13075 -7.08623,24.68025 0.13751,10.5496 2.49226,18.7764 7.08623,24.68026 4.59389,5.9039 10.60181,8.90426 18.00167,9.00103 7.39974,-0.0968 13.38566,-3.09713 17.97966,-9.00103 4.59386,-5.90386 6.97062,-14.13066 7.10824,-24.68026 -0.13762,-10.5495 -2.51438,-18.7763 -7.10824,-24.68025 -4.594,-5.90381 -10.57992,-8.90417 -17.97966,-9.00103 z m 216.61421,0 c -7.39982,0.0969 -13.38577,3.09722 -17.97965,9.00103 -4.59394,5.90395 -6.97072,14.13075 -7.10823,24.68025 0.13751,10.5496 2.51429,18.7764 7.10823,24.68026 4.59388,5.9039 10.57983,8.90426 17.97965,9.00103 7.39975,-0.0968 13.40768,-3.09713 18.0017,-9.00103 4.59385,-5.90386 6.94861,-14.13066 7.08624,-24.68026 -0.13763,-10.5495 -2.49239,-18.7763 -7.08624,-24.68025 -4.59402,-5.90381 -10.60195,-8.90417 -18.0017,-9.00103 z m -457.10597,1.16142 v 32.51986 h 11.88375 c 5.50166,0.0484 10.34322,-1.20977 14.52458,-3.77462 4.18123,-2.56475 6.38194,-6.72655 6.60208,-12.48531 -0.22014,-5.75863 -2.42085,-9.92043 -6.60208,-12.4853 -4.18136,-2.56473 -9.02292,-3.82295 -14.52458,-3.77463 z m 331.57844,0 v 23.88661 h 21.12666 c 4.01618,-0.0622 7.2072,-1.17105 9.57302,-3.34877 2.36566,-2.1776 3.57607,-5.04799 3.63115,-8.59453 -0.13764,-4.05453 -1.52409,-7.06043 -4.13732,-9.0204 -2.61335,-1.95981 -5.62833,-2.93319 -9.06685,-2.92291 z m 0,37.16556 v 27.87417 h 22.4471 c 5.28158,-0.1659 9.24285,-1.65088 11.88373,-4.47148 2.64074,-2.82057 3.96118,-5.98132 3.96126,-9.46561 -8e-5,-3.48422 -1.32052,-6.64498 -3.96126,-9.4656 -2.64088,-2.82055 -6.60215,-4.30552 -11.88373,-4.47148 z"
         id="rect7994" /><path
         style="fill:#b92b1e;fill-opacity:1;stroke:none"
         d="M 432.90474,359.19301 101.01273,563.60366 h 73.6664 L 506.57112,359.19301 z"
         id="path12330"
         inkscape:connector-curvature="0"
         sodipodi:nodetypes="ccccc" /><rect
         y="353.61819"
         x="-65.220291"
         height="215.56024"
         width="738.02448"
         id="rect7867"
         style="color:#000000;fill:none;stroke:#000000;stroke-width:1.32092893;stroke-miterlimit:4;stroke-opacity:1;stroke-dasharray:none;marker:none;visibility:visible;display:inline;overflow:visible;enable-background:accumulate"
         rx="30.985762"
         ry="27.254744" /></g></g></g></svg>