<?xml version="1.0" encoding="UTF-8" standalone="no"?>
<!-- Created with Inkscape (http://www.inkscape.org/) -->

<svg
   xmlns:dc="http://purl.org/dc/elements/1.1/"
   xmlns:cc="http://creativecommons.org/ns#"
   xmlns:rdf="http://www.w3.org/1999/02/22-rdf-syntax-ns#"
   xmlns:svg="http://www.w3.org/2000/svg"
   xmlns="http://www.w3.org/2000/svg"
   xmlns:sodipodi="http://sodipodi.sourceforge.net/DTD/sodipodi-0.dtd"
   xmlns:inkscape="http://www.inkscape.org/namespaces/inkscape"
   version="1.1"
   width="284.06251"
   height="143.0625"
   viewBox="0 0 284.06251 143.0625"
   id="Слой_1"
   xml:space="preserve"
   inkscape:version="0.48.2 r9819"
   sodipodi:docname="6.14.1.4.svg"><sodipodi:namedview
   pagecolor="#ffffff"
   bordercolor="#666666"
   borderopacity="1"
   objecttolerance="10"
   gridtolerance="10"
   guidetolerance="10"
   inkscape:pageopacity="0"
   inkscape:pageshadow="2"
   inkscape:window-width="1366"
   inkscape:window-height="705"
   id="namedview9"
   showgrid="false"
   inkscape:zoom="2.6402639"
   inkscape:cx="173.77425"
   inkscape:cy="83.61506"
   inkscape:window-x="-8"
   inkscape:window-y="-8"
   inkscape:window-maximized="1"
   inkscape:current-layer="Слой_1" /><metadata
   id="metadata27"><rdf:RDF><cc:Work
       rdf:about=""><dc:format>image/svg+xml</dc:format><dc:type
         rdf:resource="http://purl.org/dc/dcmitype/StillImage" /><dc:title /></cc:Work></rdf:RDF></metadata><defs
   id="defs25" />
<style
   type="text/css"
   id="style3" />
<g
   transform="translate(-155.03125,-647.125)"
   id="g5">
	
	
	
	
	<path
   d="m 165.6,647.4 h 262.9 c 5.7,0 10.3,4.6 10.3,10.3 v 121.9 c 0,5.7 -4.6,10.3 -10.3,10.3 H 165.6 c -5.7,0 -10.3,-4.6 -10.3,-10.3 V 657.7 c 0,-5.6 4.6,-10.3 10.3,-10.3 l 0,0 z"
   id="path15"
   style="fill:#ffffff;fill-rule:evenodd;stroke:#000000;stroke-width:0.56690001;stroke-miterlimit:22.92560005" />
	<path
   d="m 165.8,651.5 262.3,0 c 3.6,0 6.5,2.9 6.5,6.5 l 0,121.4 c 0,3.6 -2.9,6.5 -6.5,6.5 l -262.3,0 c -3.6,0 -6.5,-2.9 -6.5,-6.5 l 0,-121.4 c 0,-3.6 2.9,-6.5 6.5,-6.5 z m 46.4,98.5 12.6,0 0,-22.3 12.1,0 c 11.2,0 20,-10.3 20.2,-20.6 0.2,-10.3 -7.9,-20.2 -19.1,-20.2 l -25.8,0 0,43.1 0,20 z m 13,-52.3 11.1,0 c 4.5,0 8.8,3.1 8.8,10.1 0,7 -4.6,10 -8.8,10 l -11.1,0 0,-20.1 z"
   id="path17"
   style="fill:#3298df;fill-rule:evenodd"
   inkscape:connector-curvature="0"
   sodipodi:nodetypes="cssssssscccccssscccccsssccc" />
	
	
</g>
<text
   xml:space="preserve"
   style="font-size:110.71256256px;font-style:normal;font-variant:normal;font-weight:normal;font-stretch:normal;line-height:125%;letter-spacing:0px;word-spacing:0px;fill:#000000;fill-opacity:1;stroke:none;font-family:Russian Road Sign;-inkscape-font-specification:Russian Road Sign"
   x="110.95344"
   y="104.25101"
   id="text2986"
   sodipodi:linespacing="125%"><tspan
     sodipodi:role="line"
     id="tspan2988"
     x="110.95344"
     y="104.25101"
     style="fill:#ffffff">115</tspan></text>
</svg>