<?xml version="1.0" encoding="UTF-8" standalone="no"?>
<!-- Generator: Adobe Illustrator 22.0.1, SVG Export Plug-In . SVG Version: 6.00 Build 0)  -->

<svg
   xmlns:dc="http://purl.org/dc/elements/1.1/"
   xmlns:cc="http://creativecommons.org/ns#"
   xmlns:rdf="http://www.w3.org/1999/02/22-rdf-syntax-ns#"
   xmlns:svg="http://www.w3.org/2000/svg"
   xmlns="http://www.w3.org/2000/svg"
   xmlns:sodipodi="http://sodipodi.sourceforge.net/DTD/sodipodi-0.dtd"
   xmlns:inkscape="http://www.inkscape.org/namespaces/inkscape"
   version="1.1"
   id="Слой_1"
   x="0px"
   y="0px"
   viewBox="0 0 143.1875 143.1875"
   xml:space="preserve"
   inkscape:version="0.48.2 r9819"
   width="143.1875"
   height="143.1875"
   sodipodi:docname="6.14.1.1.svg"><metadata
   id="metadata27"><rdf:RDF><cc:Work
       rdf:about=""><dc:format>image/svg+xml</dc:format><dc:type
         rdf:resource="http://purl.org/dc/dcmitype/StillImage" /></cc:Work></rdf:RDF></metadata><defs
   id="defs25" /><sodipodi:namedview
   pagecolor="#ffffff"
   bordercolor="#666666"
   borderopacity="1"
   objecttolerance="10"
   gridtolerance="10"
   guidetolerance="10"
   inkscape:pageopacity="0"
   inkscape:pageshadow="2"
   inkscape:window-width="1366"
   inkscape:window-height="705"
   id="namedview23"
   showgrid="false"
   fit-margin-top="0"
   fit-margin-left="0"
   fit-margin-right="0"
   fit-margin-bottom="0"
   inkscape:zoom="2.2425466"
   inkscape:cx="117.7071"
   inkscape:cy="64.008216"
   inkscape:window-x="-8"
   inkscape:window-y="-8"
   inkscape:window-maximized="1"
   inkscape:current-layer="Слой_1" />
<style
   type="text/css"
   id="style3">
	.st0{fill-rule:evenodd;clip-rule:evenodd;fill:#FFFFFF;stroke:#000000;stroke-width:0.5669;stroke-miterlimit:22.9256;}
	.st1{fill-rule:evenodd;clip-rule:evenodd;fill:#3298DF;}
	.st2{fill-rule:evenodd;clip-rule:evenodd;fill:#168C30;}
</style>
<g
   id="g5"
   transform="translate(-225.40625,-51.90625)">
	<path
   class="st0"
   d="m 236.6,52.2 h 120.8 c 6,0 10.9,4.9 10.9,10.9 v 120.8 c 0,6 -4.9,10.9 -10.9,10.9 H 236.6 c -6,0 -10.9,-4.9 -10.9,-10.9 V 63 c 0.1,-5.9 4.9,-10.8 10.9,-10.8 l 0,0 z"
   id="path7"
   inkscape:connector-curvature="0"
   style="fill:#ffffff;fill-rule:evenodd;stroke:#000000;stroke-width:0.56690001;stroke-miterlimit:22.92560005" />
	<path
   class="st1"
   d="m 236.4,56.3 121.3,0 c 3.6,0 6.5,2.9 6.5,6.5 l 0,121.3 c 0,3.6 -2.9,6.5 -6.5,6.5 l -121.3,0 c -3.6,0 -6.5,-2.9 -6.5,-6.5 l 0,-121.3 c 0,-3.6 2.9,-6.5 6.5,-6.5 z m 36,89.6 -15.8,-35 -4.7,44 -11.9,0 7.2,-63.1 11.6,0 13.6,29.1 13.6,-29.1 11.6,0 7.2,63.1 -11.9,0 -4.7,-44 -15.8,35 z"
   id="path9"
   inkscape:connector-curvature="0"
   style="fill:#3298df;fill-rule:evenodd"
   sodipodi:nodetypes="cssssssscccccccccccccccc" />
	
	
	
	
	
	
</g>
<text
   xml:space="preserve"
   style="font-size:113.88261414px;font-style:normal;font-variant:normal;font-weight:normal;font-stretch:normal;line-height:125%;letter-spacing:0px;word-spacing:0px;fill:#000000;fill-opacity:1;stroke:none;font-family:Russian Road Sign;-inkscape-font-specification:Russian Road Sign"
   x="108.78058"
   y="103.6331"
   id="text2985"
   sodipodi:linespacing="125%"><tspan
     sodipodi:role="line"
     id="tspan2987"
     x="108.78058"
     y="103.6331"
     style="text-align:center;text-anchor:middle;fill:#ffffff">5</tspan></text>
</svg>