<?xml version="1.0" encoding="UTF-8" standalone="no"?>
<!-- Generator: Adobe Illustrator 22.0.1, SVG Export Plug-In . SVG Version: 6.00 Build 0)  -->

<svg
   xmlns:dc="http://purl.org/dc/elements/1.1/"
   xmlns:cc="http://creativecommons.org/ns#"
   xmlns:rdf="http://www.w3.org/1999/02/22-rdf-syntax-ns#"
   xmlns:svg="http://www.w3.org/2000/svg"
   xmlns="http://www.w3.org/2000/svg"
   xmlns:sodipodi="http://sodipodi.sourceforge.net/DTD/sodipodi-0.dtd"
   xmlns:inkscape="http://www.inkscape.org/namespaces/inkscape"
   version="1.1"
   id="Слой_1"
   x="0px"
   y="0px"
   viewBox="0 0 340.65624 114.5625"
   xml:space="preserve"
   inkscape:version="0.48.2 r9819"
   width="340.65624"
   height="114.5625"
   sodipodi:docname="6.16.svg"><metadata
   id="metadata15"><rdf:RDF><cc:Work
       rdf:about=""><dc:format>image/svg+xml</dc:format><dc:type
         rdf:resource="http://purl.org/dc/dcmitype/StillImage" /></cc:Work></rdf:RDF></metadata><defs
   id="defs13" /><sodipodi:namedview
   pagecolor="#ffffff"
   bordercolor="#666666"
   borderopacity="1"
   objecttolerance="10"
   gridtolerance="10"
   guidetolerance="10"
   inkscape:pageopacity="0"
   inkscape:pageshadow="2"
   inkscape:window-width="640"
   inkscape:window-height="480"
   id="namedview11"
   showgrid="false"
   fit-margin-top="0"
   fit-margin-left="0"
   fit-margin-right="0"
   fit-margin-bottom="0"
   inkscape:zoom="0.28031833"
   inkscape:cx="170.61875"
   inkscape:cy="57.518761"
   inkscape:window-x="0"
   inkscape:window-y="0"
   inkscape:window-maximized="0"
   inkscape:current-layer="Слой_1" />
<style
   type="text/css"
   id="style3">
	.st0{fill-rule:evenodd;clip-rule:evenodd;fill:#FFFFFF;stroke:#000000;stroke-width:0.5669;stroke-miterlimit:22.9256;}
	.st1{fill-rule:evenodd;clip-rule:evenodd;}
</style>
<g
   id="g5"
   transform="translate(-127.03125,-363.90627)">
	<path
   class="st0"
   d="M 142.7,364.2 H 452 c 8.5,0 15.4,6.9 15.4,15.4 v 83.2 c 0,8.5 -6.9,15.4 -15.4,15.4 H 142.7 c -8.5,0 -15.4,-6.9 -15.4,-15.4 v -83.2 c 0,-8.5 6.9,-15.4 15.4,-15.4 l 0,0 z"
   id="path7"
   inkscape:connector-curvature="0"
   style="fill:#ffffff;fill-rule:evenodd;stroke:#000000;stroke-width:0.56690001;stroke-miterlimit:22.92560005" />
	<path
   class="st1"
   d="m 143.3,367.4 h 308.1 c 6.9,0 12.6,5.7 12.6,12.6 v 82.4 c 0,6.9 -5.7,12.6 -12.6,12.6 -243.4,0 -255.2,0 -308.1,0 -6.9,0 -12.6,-5.7 -12.6,-12.6 V 380 c 0,-6.9 5.7,-12.6 12.6,-12.6 l 0,0 z m 0.4,2.8 H 451 c 5.6,0 10.1,4.5 10.1,10.1 V 462 c 0,5.6 -4.5,10.1 -10.1,10.1 H 143.7 c -5.6,0 -10.1,-4.5 -10.1,-10.1 v -81.7 c 0,-5.5 4.6,-10.1 10.1,-10.1 l 0,0 z m 99.6,16.6 h 23.2 23.2 v 12.1 h -16.8 v 56.8 h -6.4 -6.4 v -56.8 h -16.8 v -12.1 l 0,0 z m 66.9,34.4 c 0,7.8 1.4,13.7 4.3,17.7 5.8,8.1 16.1,8.1 21.9,0 2.8,-4 4.3,-10 4.3,-18 0,-7.9 -1.4,-13.8 -4.1,-17.7 -5.6,-7.9 -16.5,-7.8 -22.1,0.1 -2.9,4 -4.3,9.9 -4.3,17.9 l 0,0 z m -11.5,0.4 c 0,-21.2 8.9,-36 26.6,-36 17.4,0 26.8,14.7 26.8,35.7 0,21.4 -9.7,35.5 -26.6,35.5 -17,0 -26.8,-13.9 -26.8,-35.2 l 0,0 z m -70,12.8 c -1.8,12.9 -12.7,22.1 -24.4,22.4 -17.4,0.4 -26.4,-15.6 -26.4,-35 0,-11.5 2.5,-20.4 7.5,-26.7 5,-6.3 11.5,-9.7 19.6,-9.5 12.4,0.3 20.1,7.7 23.3,21.5 -3.7,1.2 -7.4,2.4 -11.1,3.6 0.1,0 -3,-13.7 -12.8,-13.8 -10.3,-0.1 -14.1,12.9 -14.2,24.8 0,10.6 3,23.9 13.9,23.9 7,0 11.7,-7.1 13.1,-14.4 l 11.5,3.2 0,0 z m 138.5,-47.6 h 46.2 v 68.9 h -11.3 v -57.1 h -23.7 v 57.1 h -11.3 v -68.9 l 0.1,0 z"
   id="path9"
   inkscape:connector-curvature="0"
   style="fill-rule:evenodd" />
</g>
</svg>