<?xml version="1.0" encoding="UTF-8" standalone="no"?>
<!-- Generator: Adobe Illustrator 22.0.1, SVG Export Plug-In . SVG Version: 6.00 Build 0)  -->

<svg
   xmlns:dc="http://purl.org/dc/elements/1.1/"
   xmlns:cc="http://creativecommons.org/ns#"
   xmlns:rdf="http://www.w3.org/1999/02/22-rdf-syntax-ns#"
   xmlns:svg="http://www.w3.org/2000/svg"
   xmlns="http://www.w3.org/2000/svg"
   xmlns:sodipodi="http://sodipodi.sourceforge.net/DTD/sodipodi-0.dtd"
   xmlns:inkscape="http://www.inkscape.org/namespaces/inkscape"
   version="1.1"
   id="Слой_1"
   x="0px"
   y="0px"
   viewBox="0 0 283.93749 425.18749"
   xml:space="preserve"
   inkscape:version="0.48.2 r9819"
   width="283.93749"
   height="425.18749"
   sodipodi:docname="7.14.svg"><metadata
   id="metadata17"><rdf:RDF><cc:Work
       rdf:about=""><dc:format>image/svg+xml</dc:format><dc:type
         rdf:resource="http://purl.org/dc/dcmitype/StillImage" /></cc:Work></rdf:RDF></metadata><defs
   id="defs15" /><sodipodi:namedview
   pagecolor="#ffffff"
   bordercolor="#666666"
   borderopacity="1"
   objecttolerance="10"
   gridtolerance="10"
   guidetolerance="10"
   inkscape:pageopacity="0"
   inkscape:pageshadow="2"
   inkscape:window-width="640"
   inkscape:window-height="480"
   id="namedview13"
   showgrid="false"
   fit-margin-top="0"
   fit-margin-left="0"
   fit-margin-right="0"
   fit-margin-bottom="0"
   inkscape:zoom="0.28031833"
   inkscape:cx="142.61875"
   inkscape:cy="213.14376"
   inkscape:window-x="0"
   inkscape:window-y="0"
   inkscape:window-maximized="0"
   inkscape:current-layer="Слой_1" />
<style
   type="text/css"
   id="style3">
	.st0{fill-rule:evenodd;clip-rule:evenodd;fill:#FFFFFF;stroke:#000000;stroke-width:0.5669;stroke-miterlimit:22.9256;}
	.st1{fill-rule:evenodd;clip-rule:evenodd;fill:#3298DF;}
	.st2{fill-rule:evenodd;clip-rule:evenodd;}
</style>
<g
   id="g5"
   transform="translate(-155.03125,-208.90627)">
	<path
   class="st0"
   d="m 177,209.2 h 240 c 12,0 21.7,9.8 21.7,21.7 v 381.2 c 0,12 -9.8,21.7 -21.7,21.7 H 177 c -12,0 -21.7,-9.8 -21.7,-21.7 V 230.9 c 0,-12 9.8,-21.7 21.7,-21.7 l 0,0 z"
   id="path7"
   inkscape:connector-curvature="0"
   style="fill:#ffffff;fill-rule:evenodd;stroke:#000000;stroke-width:0.56690001;stroke-miterlimit:22.92560005" />
	<path
   class="st1"
   d="m 177.2,218.5 h 239.7 c 6.9,0 12.5,5.6 12.5,12.5 v 381 c 0,6.9 -5.6,12.5 -12.5,12.5 H 177.2 c -6.9,0 -12.5,-5.6 -12.5,-12.5 V 231 c 0,-6.9 5.6,-12.5 12.5,-12.5 l 0,0 z m 21.3,61.7 h 196.9 c 9.2,0 16.6,7.5 16.6,16.6 v 196.9 c 0,9.2 -7.5,16.6 -16.6,16.6 H 198.5 c -9.2,0 -16.6,-7.5 -16.6,-16.6 V 296.8 c 0,-9.1 7.5,-16.6 16.6,-16.6 l 0,0 z m 124.4,308.1 c 0,1.9 0.4,3.3 1.2,4.3 0.8,1 1.8,1.5 2.9,1.5 1.2,0 2.1,-0.5 2.9,-1.5 0.8,-1 1.2,-2.4 1.2,-4.4 0,-1.9 -0.4,-3.3 -1.2,-4.3 -0.8,-1 -1.8,-1.5 -2.9,-1.5 -1.2,0 -2.1,0.5 -2.9,1.5 -0.8,1.1 -1.2,2.5 -1.2,4.4 l 0,0 z m -4.3,-0.3 c 0,-1.6 0.4,-3.2 1.1,-4.7 0.7,-1.5 1.7,-2.7 3,-3.4 1.3,-0.8 2.7,-1.2 4.3,-1.2 2.5,0 4.5,0.9 6.1,2.7 1.6,1.8 2.4,4.1 2.4,6.8 0,2.8 -0.8,5.1 -2.4,6.9 -1.6,1.8 -3.6,2.7 -6,2.7 -1.5,0 -2.9,-0.4 -4.3,-1.1 -1.4,-0.8 -2.4,-1.9 -3.1,-3.3 -0.7,-1.5 -1.1,-3.3 -1.1,-5.4 l 0,0 z m -96.5,-8.8 h 4.4 v 6.5 c 3.5,-0.5 4.7,-6.7 9.7,-7 l 0.8,3.8 c -2.8,-0.1 -4.1,4.2 -6.2,4.8 3.9,0.5 3.8,4.8 8,10.2 h -5 c -4.6,-7.7 -3.5,-8.2 -7.3,-8.2 v 8.2 h -4.4 v -18.3 l 0,0 z M 359.7,579 h 4.3 v 4.6 1.8 h 4.2 c 4.1,0 6.7,2.3 6.6,5.9 -0.1,3.6 -2.9,6.3 -6.6,6.3 h -8.6 v -14 -4.6 l 0.1,0 z m 4.4,14.7 h 3 c 1.8,0 3.5,-0.7 3.5,-2.2 0,-1.6 -1.8,-2.2 -3.5,-2.2 h -3 v 4.4 l 0,0 z m -118.7,-5.4 c 0,1.9 0.4,3.3 1.2,4.3 0.8,1 1.8,1.5 2.9,1.5 1.2,0 2.1,-0.5 2.9,-1.5 0.8,-1 1.2,-2.4 1.2,-4.4 0,-1.9 -0.4,-3.3 -1.2,-4.3 -0.8,-1 -1.8,-1.5 -2.9,-1.5 -1.2,0 -2.1,0.5 -2.9,1.5 -0.8,1.1 -1.2,2.5 -1.2,4.4 l 0,0 z m -4.2,-0.3 c 0,-1.6 0.4,-3.2 1.1,-4.7 0.7,-1.5 1.7,-2.7 3,-3.4 1.3,-0.8 2.7,-1.2 4.3,-1.2 2.5,0 4.5,0.9 6.1,2.7 1.6,1.8 2.4,4.1 2.4,6.8 0,2.8 -0.8,5.1 -2.4,6.9 -1.6,1.8 -3.6,2.7 -6,2.7 -1.5,0 -2.9,-0.4 -4.3,-1.1 -1.4,-0.8 -2.4,-1.9 -3.1,-3.3 -0.8,-1.5 -1.1,-3.3 -1.1,-5.4 l 0,0 z m 25.1,1.7 h 6.4 v 7.9 H 277 V 579 h -4.3 v 6.9 h -6.4 V 579 H 262 v 18.5 h 4.3 v -7.8 l 0,0 z m 36.1,-3.1 c 0,-4.6 6.1,-5.8 7.8,-1.4 1.1,2.9 0.5,8.6 -4,8.7 -1.4,0 -2.8,-0.8 -3.4,-2.2 -0.3,-0.5 -0.4,-1.2 -0.4,-2 v -3.1 l 0,0 z m 0,18.2 v -8.6 c 0.5,0 1,1.6 4.1,1.6 5.2,0.1 8.5,-4.6 8.6,-9.5 0.1,-5 -2.7,-9.7 -8.4,-9.6 -1.5,0 -3.1,0.5 -4.2,1.9 h -0.1 l -0.7,-1.4 c -1.6,0 -1.8,0 -3.5,0 v 25.7 h 4.2 l 0,-0.1 z M 290.2,583 v 14.5 H 290 288.1 286.2 286 V 583 h -5.4 v -4 c 5,0 10,0 15,0 v 4 h -5.4 l 0,0 z m 52.3,-4 h 11.8 v 18.5 h -3.5 V 582.1 H 346 l -0.2,7.9 c -0.1,4.4 -2.4,7.2 -6.7,8 l -0.7,-3.4 c 3.4,-0.7 3.7,-2.8 3.8,-5 l 0.3,-10.6 0,0 z M 184.9,562.2 v -19.7 h -7.6 V 537 h 20.4 v 5.4 h -7.6 v 19.7 h -5.2 l 0,0.1 z m 161.8,-14.6 v 14.5 h -0.2 -1.9 -1.9 -0.2 v -14.5 h -5.4 v -4 c 5,0 10,0 15,0 v 4 h -5.4 l 0,0 z m -72.8,8.7 c -0.6,3.5 -4.1,6 -7.9,6 -5.7,0.1 -8.6,-4.2 -8.6,-9.4 0,-3.1 0.8,-5.5 2.4,-7.2 1.6,-1.7 3.7,-2.6 6.4,-2.6 4,0.1 6.5,2.1 7.6,5.8 -1.2,0.3 -2.4,0.6 -3.6,1 0,0 -1,-3.2 -4.2,-3.2 -3.3,0 -4.4,3 -4.4,6.2 0,2.8 0.9,6 4.4,6 2.3,0 3.7,-1.5 4.2,-3.5 l 3.7,0.9 0,0 z M 375,543.6 h 4.3 v 5.9 1.1 h 4.2 c 4.1,0 6.6,2.2 6.5,5.6 -0.1,3.4 -2.9,5.9 -6.5,5.9 H 375 v -12.7 -5.8 l 0,0 z m 4.3,14.9 h 3 c 1.8,0 3.6,-0.7 3.6,-2.4 0,-1.6 -1.9,-2.3 -3.6,-2.3 h -3.1 v 4.7 l 0.1,0 z m 13,-14.9 h 4.2 v 18.5 h -4.2 v -18.5 l 0,0 z m -172.1,5.3 -2,-3.3 c 4.4,-3.6 14.6,-3.9 14.6,4.2 l 0,8.1 c 0,0.4 0.4,0.9 0.8,0.9 h 1 l -1.4,3.3 c -2.1,0.2 -3.8,-0.4 -4.5,-2.2 -1.3,1.7 -3,2.4 -4.8,2.4 -2.8,0 -5.5,-2.1 -5.6,-5.5 -0.3,-6.3 7.8,-6.6 10.2,-6.8 0.1,-5.1 -6.5,-3.3 -8.3,-1.1 l 0,0 z m 8.3,4.3 c -2.1,0.7 -6.2,0.6 -6.1,3.3 0.1,3.3 4.6,2.6 6.1,-0.4 l 0,-2.9 0,0 z m 172.3,-9.6 h 4.3 V 555 l 7.3,-11.4 h 4.3 v 18.6 h -4.3 V 551 l -7.3,11.1 h -4.3 v -18.5 l 0,0 z m 14.5,-7.9 c -0.5,3.2 -3.3,5.7 -6.7,5.7 -3.4,0 -6.1,-2.5 -6.7,-5.7 h 3.3 c 0.5,1.4 1.8,2.4 3.3,2.4 1.6,0 2.9,-1 3.3,-2.4 h 3.5 l 0,0 z m -114,17.1 c 0,1.9 0.4,3.3 1.2,4.3 0.8,1 1.8,1.5 2.9,1.5 1.2,0 2.1,-0.5 2.9,-1.5 0.8,-1 1.2,-2.4 1.2,-4.4 0,-1.9 -0.4,-3.3 -1.2,-4.3 -0.8,-1 -1.8,-1.5 -2.9,-1.5 -1.2,0 -2.1,0.5 -2.9,1.5 -0.8,1 -1.2,2.5 -1.2,4.4 l 0,0 z m -4.3,-0.3 c 0,-1.6 0.4,-3.2 1.1,-4.7 0.7,-1.5 1.7,-2.7 3,-3.4 1.3,-0.8 2.7,-1.2 4.3,-1.2 2.5,0 4.5,0.9 6.1,2.7 1.6,1.8 2.4,4.1 2.4,6.8 0,2.8 -0.8,5.1 -2.4,6.9 -1.6,1.8 -3.6,2.7 -6,2.7 -1.5,0 -2.9,-0.4 -4.3,-1.1 -1.4,-0.8 -2.4,-1.9 -3.1,-3.3 -0.7,-1.5 -1.1,-3.3 -1.1,-5.4 l 0,0 z m -94.1,-1.4 c 0,-4.6 6.1,-5.8 7.8,-1.4 1.1,2.9 0.5,8.6 -4,8.7 -1.4,0 -2.8,-0.8 -3.4,-2.2 -0.3,-0.5 -0.4,-1.2 -0.4,-2 v -3.1 l 0,0 z m 0,18.2 v -8.6 c 0.5,0 1,1.6 4.1,1.6 5.2,0.1 8.5,-4.6 8.6,-9.5 0.1,-5 -2.7,-9.7 -8.4,-9.6 -1.5,0 -3.1,0.5 -4.2,1.9 h -0.1 l -0.7,-1.4 c -1.6,0 -1.8,0 -3.5,0 v 25.7 h 4.2 l 0,-0.1 z m 39.9,-15 h 6.4 v 7.9 h 4.3 v -18.5 h -4.3 v 6.9 h -6.4 v -6.9 h -4.3 v 18.5 h 4.3 v -7.9 l 0,0 z m 34.9,-10.7 h 15.1 v 18.5 h -4.3 V 547.4 H 282 v 14.7 h -4.3 v -18.5 l 0,0 z m 44.2,7.5 c 0,-4.6 6.1,-5.8 7.8,-1.4 1.1,2.9 0.5,8.6 -4,8.7 -1.4,0 -2.8,-0.8 -3.4,-2.2 -0.3,-0.5 -0.4,-1.2 -0.4,-2 v -3.1 l 0,0 z m 0,18.2 v -8.6 c 0.5,0 1,1.6 4.1,1.6 5.2,0.1 8.5,-4.6 8.6,-9.5 0.1,-5 -2.7,-9.7 -8.4,-9.6 -1.5,0 -3.1,0.5 -4.2,1.9 h -0.1 l -0.7,-1.4 c -1.6,0 -1.8,0 -3.5,0 v 25.7 h 4.2 l 0,-0.1 z m 37.9,-15 h 6.4 v 7.9 h 4.3 v -18.5 h -4.3 v 6.9 h -6.4 v -6.9 h -4.3 v 18.5 h 4.3 v -7.9 l 0,0 z"
   id="path9"
   inkscape:connector-curvature="0"
   style="fill:#3298df;fill-rule:evenodd" />
	<path
   class="st2"
   d="m 335.4,452.1 c 7.3,0 13.2,5.9 13.2,13.2 0,7.3 -5.9,13.2 -13.2,13.2 -7.3,0 -13.2,-5.9 -13.2,-13.2 -0.1,-7.3 5.9,-13.2 13.2,-13.2 l 0,0 z m 0,7.2 c 3.3,0 6,2.7 6,6 0,3.3 -2.7,6 -6,6 -3.3,0 -6,-2.7 -6,-6 0,-3.3 2.6,-6 6,-6 l 0,0 z m -82.9,-7.2 c 7.3,0 13.2,5.9 13.2,13.2 0,7.3 -5.9,13.2 -13.2,13.2 -7.3,0 -13.2,-5.9 -13.2,-13.2 0,-7.3 5.9,-13.2 13.2,-13.2 l 0,0 z m 0,7.2 c 3.3,0 6,2.7 6,6 0,3.3 -2.7,6 -6,6 -3.3,0 -6,-2.7 -6,-6 0,-3.3 2.7,-6 6,-6 l 0,0 z m -6.6,-50.2 h 107.5 c 5.2,0 7,3 8.3,6.6 1.9,5.7 3.8,11.4 5.9,17.1 v 26.3 c 0,3.7 -3,6.7 -6.7,6.7 h -10 c 0,-0.2 0,-0.3 0,-0.5 0,-8.7 -6.8,-15.7 -15.5,-15.7 -8.7,0 -15.4,7.1 -15.4,15.7 0,0.2 0,0.3 0,0.5 h -52.1 c 0,-0.2 0,-0.3 0,-0.5 0,-8.7 -6.6,-15.7 -15.3,-15.7 -8.7,0 -15.5,7.1 -15.5,15.7 0,0.2 0,0.3 0,0.5 h -3.8 c -3.7,0 -6.7,-3 -6.7,-6.7 v -25.5 l 10.3,-17.8 c 1.8,-3.2 3.9,-6.7 9,-6.7 l 0,0 z m 51,5.7 h 19.5 c 1.4,0 2.5,1.1 2.5,2.5 v 13.1 c 0,1.4 -1.1,2.5 -2.5,2.5 h -19.5 c -1.4,0 -2.5,-1.1 -2.5,-2.5 v -13.1 c 0,-1.4 1.1,-2.5 2.5,-2.5 l 0,0 z m 31.9,0 h 18 c 1.4,0 2.8,0.6 3.4,2.5 l 3.2,11.4 c 0.6,1.9 -0.1,4.2 -2.8,4.2 h -21.8 c -1.4,0 -2.5,-1.1 -2.5,-2.5 v -13.1 c -0.1,-1.4 1.1,-2.5 2.5,-2.5 l 0,0 z m -76,0 h -7.3 c -1.4,0 -2.7,0.8 -3.7,2.5 l -6.6,11.4 c -1,1.8 0.1,4.2 2.8,4.2 h 14.8 c 1.4,0 2.5,-1.1 2.5,-2.5 v -13.1 c 0,-1.4 -1.2,-2.5 -2.5,-2.5 l 0,0 z m 12.3,0 h 19.5 c 1.4,0 2.5,1.1 2.5,2.5 v 13.1 c 0,1.4 -1.1,2.5 -2.5,2.5 h -19.5 c -1.4,0 -2.5,-1.1 -2.5,-2.5 v -13.1 c 0,-1.4 1.1,-2.5 2.5,-2.5 l 0,0 z M 244,332.6 h 17.2 c 2.2,0 4,1.8 4,4 v 10 c 0,2.2 -1.8,4 -4,4 H 238 c -3.6,0 -4.6,-4.2 -3.1,-6.4 l 6.6,-9.9 c 0.5,-1 1.2,-1.7 2.5,-1.7 l 0,0 z m 95.5,32.7 c 6.9,0 12.5,5.6 12.5,12.5 0,6.9 -5.6,12.5 -12.5,12.5 -6.9,0 -12.5,-5.6 -12.5,-12.5 0.1,-6.9 5.7,-12.5 12.5,-12.5 l 0,0 z m 0,6.1 c 3.5,0 6.4,2.9 6.4,6.4 0,3.5 -2.9,6.4 -6.4,6.4 -3.5,0 -6.4,-2.9 -6.4,-6.4 0.1,-3.5 2.9,-6.4 6.4,-6.4 l 0,0 z m -84.9,-6.1 c 6.9,0 12.5,5.6 12.5,12.5 0,6.9 -5.6,12.5 -12.5,12.5 -6.9,0 -12.5,-5.6 -12.5,-12.5 0,-6.9 5.6,-12.5 12.5,-12.5 l 0,0 z m 0,6.1 c 3.5,0 6.4,2.9 6.4,6.4 0,3.5 -2.9,6.4 -6.4,6.4 -3.5,0 -6.4,-2.9 -6.4,-6.4 0,-3.5 2.9,-6.4 6.4,-6.4 l 0,0 z m 88.1,-7.6 h 25.5 v 13.6 h -14.3 c -0.2,-6.6 -4.9,-12.1 -11.2,-13.6 l 0,0 z m -70.5,0 h 64.3 c -6.3,1.4 -11,7 -11.1,13.6 H 269 c -0.2,-7.7 -6.5,-14 -14.3,-14 -7.8,0 -14.1,6.2 -14.3,14 H 233 c -4,0 -7.2,-3.2 -7.2,-7.2 v -6.4 -10.5 -2.4 c 0.2,-1.2 0.6,-2.4 1.4,-3.4 l 11,-15.9 c 1.2,-1.8 2.6,-3.1 5,-3.1 h 21 c 4.4,0 7.9,3.6 7.9,7.9 v 17 10.4 l 0.1,0 z m 3.2,-3 h 92.8 v -38.3 c 0,-3.8 -3.1,-6.8 -6.8,-6.8 h -79.2 c -3.8,0 -6.8,3.1 -6.8,6.8 v 38.3 l 0,0 z"
   id="path11"
   inkscape:connector-curvature="0"
   style="fill-rule:evenodd" />
</g>
</svg>