<?xml version="1.0" encoding="UTF-8" standalone="no"?>
<!-- Generator: Adobe Illustrator 22.0.1, SVG Export Plug-In . SVG Version: 6.00 Build 0)  -->

<svg
   xmlns:dc="http://purl.org/dc/elements/1.1/"
   xmlns:cc="http://creativecommons.org/ns#"
   xmlns:rdf="http://www.w3.org/1999/02/22-rdf-syntax-ns#"
   xmlns:svg="http://www.w3.org/2000/svg"
   xmlns="http://www.w3.org/2000/svg"
   xmlns:sodipodi="http://sodipodi.sourceforge.net/DTD/sodipodi-0.dtd"
   xmlns:inkscape="http://www.inkscape.org/namespaces/inkscape"
   version="1.1"
   id="Слой_1"
   x="0px"
   y="0px"
   viewBox="0 0 283.93749 425.18749"
   xml:space="preserve"
   inkscape:version="0.48.2 r9819"
   width="283.93749"
   height="425.18749"
   sodipodi:docname="7.2.svg"><metadata
   id="metadata19"><rdf:RDF><cc:Work
       rdf:about=""><dc:format>image/svg+xml</dc:format><dc:type
         rdf:resource="http://purl.org/dc/dcmitype/StillImage" /></cc:Work></rdf:RDF></metadata><defs
   id="defs17" /><sodipodi:namedview
   pagecolor="#ffffff"
   bordercolor="#666666"
   borderopacity="1"
   objecttolerance="10"
   gridtolerance="10"
   guidetolerance="10"
   inkscape:pageopacity="0"
   inkscape:pageshadow="2"
   inkscape:window-width="640"
   inkscape:window-height="480"
   id="namedview15"
   showgrid="false"
   fit-margin-top="0"
   fit-margin-left="0"
   fit-margin-right="0"
   fit-margin-bottom="0"
   inkscape:zoom="0.28031833"
   inkscape:cx="142.61875"
   inkscape:cy="213.14376"
   inkscape:window-x="0"
   inkscape:window-y="0"
   inkscape:window-maximized="0"
   inkscape:current-layer="Слой_1" />
<style
   type="text/css"
   id="style3">
	.st0{fill-rule:evenodd;clip-rule:evenodd;fill:#FFFFFF;stroke:#000000;stroke-width:0.5669;stroke-miterlimit:22.9256;}
	.st1{fill-rule:evenodd;clip-rule:evenodd;fill:#3298DF;}
	.st2{fill-rule:evenodd;clip-rule:evenodd;fill:#B92B1E;}
	.st3{fill-rule:evenodd;clip-rule:evenodd;}
</style>
<g
   id="g5"
   transform="translate(-155.03125,-208.90627)">
	<path
   class="st0"
   d="m 177,209.2 h 240 c 12,0 21.7,9.8 21.7,21.7 v 381.2 c 0,12 -9.8,21.7 -21.7,21.7 H 177 c -12,0 -21.7,-9.8 -21.7,-21.7 V 230.9 c 0,-12 9.8,-21.7 21.7,-21.7 l 0,0 z"
   id="path7"
   inkscape:connector-curvature="0"
   style="fill:#ffffff;fill-rule:evenodd;stroke:#000000;stroke-width:0.56690001;stroke-miterlimit:22.92560005" />
	<path
   class="st1"
   d="m 177.2,218.5 h 239.7 c 6.9,0 12.5,5.6 12.5,12.5 v 381 c 0,6.9 -5.6,12.5 -12.5,12.5 H 177.2 c -6.9,0 -12.5,-5.6 -12.5,-12.5 V 231 c 0,-6.9 5.6,-12.5 12.5,-12.5 l 0,0 z m 21.3,61.7 h 196.9 c 9.2,0 16.6,7.5 16.6,16.6 v 196.9 c 0,9.1 -7.5,16.6 -16.6,16.6 H 198.5 c -9.2,0 -16.6,-7.5 -16.6,-16.6 V 296.8 c 0,-9.1 7.5,-16.6 16.6,-16.6 l 0,0 z"
   id="path9"
   inkscape:connector-curvature="0"
   style="fill:#3298df;fill-rule:evenodd" />
	<polygon
   class="st2"
   points="332.7,341.1 332.7,360.3 306.6,360.3 306.6,386.3 287.4,386.3 287.4,360.3 261.4,360.3 261.4,341.1 287.4,341.1 287.4,315 287.4,315 306.6,315 306.6,341.1 "
   id="polygon11"
   style="fill:#b92b1e;fill-rule:evenodd" />
	<path
   class="st3"
   d="m 385.1,403.1 0,0 c 5.3,0 9.7,4.3 9.7,9.7 v 79.5 H 375.5 V 466.2 H 218.6 v 26.1 h -19.3 v -97.4 c 0,-5.3 4.3,-9.7 9.7,-9.7 h 0 c 5.3,0 9.7,4.3 9.7,9.7 v 43.5 h 156.9 v -25.6 c -0.1,-5.4 4.2,-9.7 9.5,-9.7 l 0,0 z m -148.7,14.7 h 33.3 c 5.8,0 10.6,4.8 10.6,10.6 v 7.2 h -54.6 v -7.2 c 0.1,-5.8 4.8,-10.6 10.7,-10.6 l 0,0 z"
   id="path13"
   inkscape:connector-curvature="0"
   style="fill-rule:evenodd" />
</g>
</svg>