<?xml version="1.0" encoding="UTF-8" standalone="no"?>
<!-- Generator: Adobe Illustrator 22.0.1, SVG Export Plug-In . SVG Version: 6.00 Build 0)  -->

<svg
   xmlns:dc="http://purl.org/dc/elements/1.1/"
   xmlns:cc="http://creativecommons.org/ns#"
   xmlns:rdf="http://www.w3.org/1999/02/22-rdf-syntax-ns#"
   xmlns:svg="http://www.w3.org/2000/svg"
   xmlns="http://www.w3.org/2000/svg"
   xmlns:sodipodi="http://sodipodi.sourceforge.net/DTD/sodipodi-0.dtd"
   xmlns:inkscape="http://www.inkscape.org/namespaces/inkscape"
   version="1.1"
   id="Слой_1"
   x="0px"
   y="0px"
   viewBox="0 0 283.93749 425.18749"
   xml:space="preserve"
   inkscape:version="0.48.2 r9819"
   width="283.93749"
   height="425.18749"
   sodipodi:docname="7.5.svg"><metadata
   id="metadata17"><rdf:RDF><cc:Work
       rdf:about=""><dc:format>image/svg+xml</dc:format><dc:type
         rdf:resource="http://purl.org/dc/dcmitype/StillImage" /></cc:Work></rdf:RDF></metadata><defs
   id="defs15" /><sodipodi:namedview
   pagecolor="#ffffff"
   bordercolor="#666666"
   borderopacity="1"
   objecttolerance="10"
   gridtolerance="10"
   guidetolerance="10"
   inkscape:pageopacity="0"
   inkscape:pageshadow="2"
   inkscape:window-width="640"
   inkscape:window-height="480"
   id="namedview13"
   showgrid="false"
   fit-margin-top="0"
   fit-margin-left="0"
   fit-margin-right="0"
   fit-margin-bottom="0"
   inkscape:zoom="0.28031833"
   inkscape:cx="142.61875"
   inkscape:cy="213.14376"
   inkscape:window-x="0"
   inkscape:window-y="0"
   inkscape:window-maximized="0"
   inkscape:current-layer="Слой_1" />
<style
   type="text/css"
   id="style3">
	.st0{fill-rule:evenodd;clip-rule:evenodd;fill:#FFFFFF;stroke:#000000;stroke-width:0.5669;stroke-miterlimit:22.9256;}
	.st1{fill-rule:evenodd;clip-rule:evenodd;fill:#3298DF;}
	.st2{fill-rule:evenodd;clip-rule:evenodd;}
</style>
<g
   id="g5"
   transform="translate(-155.03125,-208.90627)">
	<path
   class="st0"
   d="m 177,209.2 h 240 c 12,0 21.7,9.8 21.7,21.7 v 381.2 c 0,12 -9.8,21.7 -21.7,21.7 H 177 c -12,0 -21.7,-9.8 -21.7,-21.7 V 230.9 c 0,-12 9.8,-21.7 21.7,-21.7 l 0,0 z"
   id="path7"
   inkscape:connector-curvature="0"
   style="fill:#ffffff;fill-rule:evenodd;stroke:#000000;stroke-width:0.56690001;stroke-miterlimit:22.92560005" />
	<path
   class="st1"
   d="m 177.2,218.5 h 239.7 c 6.9,0 12.5,5.6 12.5,12.5 v 381 c 0,6.9 -5.6,12.5 -12.5,12.5 H 177.2 c -6.9,0 -12.5,-5.6 -12.5,-12.5 V 231 c 0,-6.9 5.6,-12.5 12.5,-12.5 l 0,0 z m 21.3,61.7 h 196.9 c 9.2,0 16.6,7.5 16.6,16.6 v 196.9 c 0,9.1 -7.5,16.6 -16.6,16.6 H 198.5 c -9.2,0 -16.6,-7.5 -16.6,-16.6 V 296.8 c 0,-9.1 7.5,-16.6 16.6,-16.6 l 0,0 z"
   id="path9"
   inkscape:connector-curvature="0"
   style="fill:#3298df;fill-rule:evenodd" />
	<path
   class="st2"
   d="m 268,482.5 c 0,5.6 -4.5,10.1 -10.1,10.1 -5.6,0 -10.1,-4.5 -10.1,-10.1 l 0,0 V 468.7 H 268 v 13.8 l 0,0 0,0 z m 78.4,0 0,0 v -13.8 h -20.3 v 13.8 l 0,0 c 0,5.6 4.5,10.1 10.1,10.1 5.7,0 10.2,-4.5 10.2,-10.1 l 0,0 z m -78.6,-85.4 h 58.5 c 2.9,0 4.4,2.5 5.3,5.3 l 7.8,24 h -84.8 l 7.4,-24 c 0.9,-2.8 2.8,-5.3 5.8,-5.3 l 0,0 z m 78.1,29.1 c 4,0 7.3,3.3 7.3,7.3 v 25.8 c 0,4 -3.3,7.3 -7.3,7.3 h -97.7 c -4,0 -7.3,-3.3 -7.3,-7.3 v -25.8 c 0,-4 3.3,-7.3 7.3,-7.3 l 9.5,-29.3 c 1.1,-3.4 2.9,-6.5 6.5,-6.5 h 65.7 c 3.6,0 5.4,3.1 6.5,6.5 l 9.5,29.3 0,0 z m -51.3,-89.3 h 5 v 49.4 h -5 v -49.4 l 0,0 z m -19.8,0 h 5 l -4.5,49.4 h -5 l 4.5,-49.4 0,0 z m -13.3,0 h 5 L 213,492.6 h -5 l 53.5,-155.7 0,0 z m 71.2,0 h -5 l 53.5,155.7 h 5 l -53.5,-155.7 0,0 z m -13.3,0 h -5 l 4.5,49.4 h 5 l -4.5,-49.4 0,0 z m -31.8,-39.7 h 9.5 9.5 v 7.3 c 0.2,2.9 0.9,5.2 3.7,7.8 5,4.8 11.8,1.6 15.4,3.5 8,4.3 7.2,10.3 7.2,18.6 h -35.8 -35.8 c 0,-8.2 -0.8,-14.2 7.2,-18.6 3.6,-2 10.4,1.3 15.4,-3.5 2.7,-2.6 3.5,-4.8 3.7,-7.8 v -7.3 l 0,0 z"
   id="path11"
   inkscape:connector-curvature="0"
   style="fill-rule:evenodd" />
</g>
</svg>