<?xml version="1.0" encoding="UTF-8" standalone="no"?>
<!-- Generator: Adobe Illustrator 22.0.1, SVG Export Plug-In . SVG Version: 6.00 Build 0)  -->

<svg
   xmlns:dc="http://purl.org/dc/elements/1.1/"
   xmlns:cc="http://creativecommons.org/ns#"
   xmlns:rdf="http://www.w3.org/1999/02/22-rdf-syntax-ns#"
   xmlns:svg="http://www.w3.org/2000/svg"
   xmlns="http://www.w3.org/2000/svg"
   xmlns:sodipodi="http://sodipodi.sourceforge.net/DTD/sodipodi-0.dtd"
   xmlns:inkscape="http://www.inkscape.org/namespaces/inkscape"
   version="1.1"
   id="Слой_1"
   x="0px"
   y="0px"
   viewBox="0 0 283.4 283.3"
   xml:space="preserve"
   inkscape:version="0.48.2 r9819"
   width="283.4"
   height="283.4"
   sodipodi:docname="8.1.2.svg"><metadata
   id="metadata13"><rdf:RDF><cc:Work
       rdf:about=""><dc:format>image/svg+xml</dc:format><dc:type
         rdf:resource="http://purl.org/dc/dcmitype/StillImage" /></cc:Work></rdf:RDF></metadata><defs
   id="defs11" /><sodipodi:namedview
   pagecolor="#ffffff"
   bordercolor="#666666"
   borderopacity="1"
   objecttolerance="10"
   gridtolerance="10"
   guidetolerance="10"
   inkscape:pageopacity="0"
   inkscape:pageshadow="2"
   inkscape:window-width="1366"
   inkscape:window-height="705"
   id="namedview9"
   showgrid="false"
   fit-margin-top="0"
   fit-margin-left="0"
   fit-margin-right="0"
   fit-margin-bottom="0"
   inkscape:zoom="0.79285995"
   inkscape:cx="277.43452"
   inkscape:cy="161.34445"
   inkscape:window-x="-8"
   inkscape:window-y="-8"
   inkscape:window-maximized="1"
   inkscape:current-layer="g5" />
<style
   type="text/css"
   id="style3">
	.st0{fill-rule:evenodd;clip-rule:evenodd;}
</style>
<g
   id="g5"
   transform="translate(-156,-279.90001)">
	



<g
   id="g5275"
   style="fill:#ffffff"><path
     style="fill:#ffffff;fill-opacity:1;fill-rule:evenodd"
     d="m 412.3,459.30001 5.2,50.9 h -12 l -2.4,-33.8 -14.1,26.5 -14.1,-26.5 -2.4,33.8 h -12 l 5.2,-50.9 h 11.4 l 12,23.5 12,-23.5 h 11.2 z"
     id="path5296"
     inkscape:connector-curvature="0" /><path
     style="fill:#ffffff;fill-opacity:1;fill-rule:evenodd"
     d="m 181.6,393.40001 8.2,-8.3 c 16,16.4 27.1,6.8 27.7,-1.3 1,-15 -31.5,-2.8 -32.3,-31 -0.5,-19.1 24.2,-30.7 43.1,-11.7 l -7.5,9.2 c -3.3,-2.9 -5.4,-6.3 -13.8,-6.6 -6.4,-0.2 -10.3,3.9 -10.3,8.8 0.3,14.6 33.4,3.9 32.4,31.1 -0.7,24.8 -33.2,29.8 -47.5,9.8 z"
     id="path5294"
     inkscape:connector-curvature="0" /><path
     style="fill:#ffffff;fill-opacity:1;fill-rule:evenodd"
     d="m 259.3,404.50001 v -58 h -17.4 v -13.7 h 48 v 13.7 h -17.4 v 58 z"
     id="path5292"
     inkscape:connector-curvature="0" /><path
     style="fill:#ffffff;fill-opacity:1;fill-rule:evenodd"
     d="m 299.3,369.10001 c 0,-43.1 35,-44.5 48.1,-27.7 13.1,16.9 11.6,64.3 -20.1,64.3 -19.4,0.1 -28,-16.7 -28,-36.6 z"
     id="path5290"
     inkscape:connector-curvature="0" /><path
     style="fill:#ffffff;fill-opacity:1;fill-rule:evenodd"
     d="m 311.2,368.60001 c 0,33.1 31.8,33.8 31.8,-0.2 0,-28.9 -20.2,-28.4 -27.4,-18.3 -2.9,4.1 -4.4,10.3 -4.4,18.5 z"
     id="path5288"
     inkscape:connector-curvature="0" /><path
     style="fill:#ffffff;fill-opacity:1;fill-rule:evenodd"
     d="m 370.2,404.50001 h 13.2 v -25.3 h 12.5 c 13.2,0 23.7,-11.7 23.9,-23.4 0.2,-11.7 -9.3,-23 -22.6,-23 h -27.1 v 49 22.7 z"
     id="path5286"
     inkscape:connector-curvature="0" /><path
     style="fill:#ffffff;fill-opacity:1;fill-rule:evenodd"
     d="m 383.4,345.40001 h 12 c 5.6,0 11.1,3.2 11.1,10.5 0,7.2 -5.8,10.4 -11.1,10.4 h -12.1 v -20.9 z"
     id="path5284"
     inkscape:connector-curvature="0" /><path
     style="fill:#ffffff;fill-opacity:1;fill-rule:evenodd"
     d="m 175.9,279.90001 c -5.2,0.1 -10.2,2.2 -13.9,5.9 -3.9,3.8 -6,8.9 -6,14.3 v 242.8 c 0,5.4 2,10.5 5.8,14.4 3.6,3.7 8.5,5.7 13.6,5.9 v 0 h 244.1 v 0 c 5.2,-0.1 10.2,-2.2 13.9,-5.9 3.9,-3.8 6,-8.9 6,-14.3 v -242.9 c 0,-5.4 -2.2,-10.5 -6,-14.3 -3.7,-3.7 -8.7,-5.8 -13.9,-5.9 v 0 H 175.9 v 0 z"
     id="path5282"
     inkscape:connector-curvature="0" /><path
     style="fill:#ffffff;fill-opacity:1;fill-rule:evenodd"
     d="m 419.5,284.40001 c 4.1,0.1 7.9,1.7 10.8,4.6 3,3 4.7,6.9 4.7,11.2 v 242.8 c 0,4.2 -1.7,8.2 -4.7,11.2 -2.9,2.9 -6.8,4.5 -10.8,4.6 v 0 H 175.4 v 0 c -4,-0.1 -7.7,-1.7 -10.5,-4.5 -3,-3 -4.5,-7.1 -4.5,-11.3 v -242.9 c 0,-4.2 1.7,-8.2 4.7,-11.2 2.9,-2.9 6.8,-4.5 10.8,-4.6 v 0 l 243.6,0.1 v 0 z"
     id="path7-0"
     inkscape:connector-curvature="0" /></g><path
   class="st0"
   d="m 412.29996,459.30001 5.2,50.9 h -12 l -2.4,-33.8 -14.1,26.5 -14.09996,-26.5 -2.4,33.8 h -12 l 5.2,-50.9 h 11.4 l 11.99996,23.5 12,-23.5 h 11.2 z m -230.69996,-65.9 8.2,-8.3 c 16,16.4 27.1,6.8 27.7,-1.3 1,-15 -31.5,-2.8 -32.3,-31 -0.5,-19.1 24.2,-30.7 43.1,-11.7 l -7.5,9.2 c -3.3,-2.9 -5.4,-6.3 -13.8,-6.6 -6.4,-0.2 -10.3,3.9 -10.3,8.8 0.3,14.6 33.4,3.9 32.4,31.1 -0.7,24.8 -33.2,29.8 -47.5,9.8 z m 77.7,11.1 v -58 h -17.4 v -13.7 h 48 v 13.7 h -17.4 v 58 z m 40,-35.4 c 0,-43.1 35,-44.5 48.1,-27.7 13.1,16.9 11.6,64.3 -20.1,64.3 -19.4,0.1 -28,-16.7 -28,-36.6 z m 11.9,-0.5 c 0,33.1 31.8,33.8 31.8,-0.2 0,-28.9 -20.2,-28.4 -27.4,-18.3 -2.9,4.1 -4.4,10.3 -4.4,18.5 z m 59,35.9 h 13.2 v -25.3 h 12.49996 c 13.2,0 23.7,-11.7 23.9,-23.4 0.2,-11.7 -9.3,-23 -22.6,-23 H 370.1 v 49 22.7 z m 13.2,-59.1 h 11.99996 c 5.6,0 11.1,3.2 11.1,10.5 0,7.2 -5.8,10.4 -11.1,10.4 H 383.3 v -20.9 z m -207.5,-65.5 c -5.2,0.1 -10.2,2.2 -13.9,5.9 -3.9,3.8 -6,8.9 -6,14.3 v 242.8 c 0,5.4 2,10.5 5.8,14.4 3.6,3.7 8.5,5.7 13.6,5.9 v 0 h 244.09996 v 0 c 5.2,-0.1 10.2,-2.2 13.9,-5.9 3.9,-3.8 6,-8.9 6,-14.3 v -242.9 c 0,-5.4 -2.2,-10.5 -6,-14.3 -3.7,-3.7 -8.7,-5.8 -13.9,-5.9 v 0 H 175.9 v 0 z m 243.59996,4.5 c 4.1,0.1 7.9,1.7 10.8,4.6 3,3 4.7,6.9 4.7,11.2 v 242.8 c 0,4.2 -1.7,8.2 -4.7,11.2 -2.9,2.9 -6.8,4.5 -10.8,4.6 v 0 H 175.4 v 0 c -4,-0.1 -7.7,-1.7 -10.5,-4.5 -3,-3 -4.5,-7.1 -4.5,-11.3 v -242.9 c 0,-4.2 1.7,-8.2 4.7,-11.2 2.9,-2.9 6.8,-4.5 10.8,-4.6 v 0 l 243.59996,0.1 v 0 z"
   id="path7-8"
   inkscape:connector-curvature="0"
   style="fill-rule:evenodd"
   sodipodi:nodetypes="ccccccccccccccccccccccccccccccccccsccscsccccccssscccccssscccccssccccccsssccccccssssccccssssccccc" /><text
   xml:space="preserve"
   style="font-size:127.15609741px;font-style:normal;font-variant:normal;font-weight:normal;font-stretch:normal;line-height:125%;letter-spacing:-4.5px;word-spacing:0px;fill:#000000;fill-opacity:1;stroke:none;font-family:Russian Road Sign;-inkscape-font-specification:Russian Road Sign"
   x="263.92319"
   y="509.54321"
   id="text4486-2"
   sodipodi:linespacing="125%"><tspan
     sodipodi:role="line"
     id="tspan4484-7"
     x="261.67319"
     y="509.54321"
     style="text-align:center;letter-spacing:-4.5px;text-anchor:middle;fill:#000000">250</tspan></text>
</g>
</svg>