<?xml version="1.0" encoding="UTF-8" standalone="no"?>
<!-- Generator: Adobe Illustrator 22.0.1, SVG Export Plug-In . SVG Version: 6.00 Build 0)  -->

<svg
   xmlns:dc="http://purl.org/dc/elements/1.1/"
   xmlns:cc="http://creativecommons.org/ns#"
   xmlns:rdf="http://www.w3.org/1999/02/22-rdf-syntax-ns#"
   xmlns:svg="http://www.w3.org/2000/svg"
   xmlns="http://www.w3.org/2000/svg"
   xmlns:sodipodi="http://sodipodi.sourceforge.net/DTD/sodipodi-0.dtd"
   xmlns:inkscape="http://www.inkscape.org/namespaces/inkscape"
   version="1.1"
   id="Слой_1"
   x="0px"
   y="0px"
   viewBox="0 0 283.39999 142.5"
   xml:space="preserve"
   inkscape:version="0.48.2 r9819"
   width="283.4"
   height="142.5"
   sodipodi:docname="8.12.svg"><metadata
   id="metadata13"><rdf:RDF><cc:Work
       rdf:about=""><dc:format>image/svg+xml</dc:format><dc:type
         rdf:resource="http://purl.org/dc/dcmitype/StillImage" /></cc:Work></rdf:RDF></metadata><defs
   id="defs11" /><sodipodi:namedview
   pagecolor="#ffffff"
   bordercolor="#666666"
   borderopacity="1"
   objecttolerance="10"
   gridtolerance="10"
   guidetolerance="10"
   inkscape:pageopacity="0"
   inkscape:pageshadow="2"
   inkscape:window-width="1366"
   inkscape:window-height="705"
   id="namedview9"
   showgrid="false"
   fit-margin-top="0"
   fit-margin-left="0"
   fit-margin-right="0"
   fit-margin-bottom="0"
   inkscape:zoom="0.56063666"
   inkscape:cx="269.56949"
   inkscape:cy="201.64233"
   inkscape:window-x="-8"
   inkscape:window-y="-8"
   inkscape:window-maximized="1"
   inkscape:current-layer="Слой_1" />
<style
   type="text/css"
   id="style3">
	.st0{fill-rule:evenodd;clip-rule:evenodd;}
</style>
<g
   id="g5"
   transform="translate(-156,-349.90002)">
	<path
   style="fill-rule:evenodd;fill:#ffffff"
   d="m 283.6,400.7 c 3.2,0 5.9,2.6 5.9,5.9 v 20.7 c 0,3.2 -2.6,5.9 -5.9,5.9 H 205 c -3.2,0 -5.9,-2.6 -5.9,-5.9 v -20.7 c 0,-3.2 2.6,-5.9 5.9,-5.9 l 7.7,-23.6 c 0.9,-2.7 2.3,-5.2 5.2,-5.2 h 52.8 c 2.9,0 4.3,2.5 5.2,5.2 l 7.7,23.6 0,0 z"
   id="path3016" /><path
   style="fill-rule:evenodd;fill:#ffffff"
   d="m 220.8,377.2 h 47 c 2.3,0 3.5,2 4.3,4.3 l 6.3,19.3 h -68.1 l 6,-19.3 c 0.6,-2.2 2.1,-4.3 4.5,-4.3 l 0,0 z"
   id="path3014" /><path
   style="fill-rule:evenodd;fill:#ffffff"
   d="m 284.1,445.9 v -11.1 h -16.3 v 11.1 c 0,4.5 3.7,8.2 8.2,8.2 4.4,0 8.1,-3.7 8.1,-8.2 l 0,0 z"
   id="path3012" /><path
   style="fill-rule:evenodd;fill:#ffffff"
   d="m 221,445.9 c 0,4.5 -3.7,8.2 -8.2,8.2 -4.5,0 -8.2,-3.7 -8.2,-8.2 V 434.8 H 221 v 11.1 l 0,0 z"
   id="path3010" /><path
   style="fill-rule:evenodd;fill:#ffffff"
   d="M 160.4,455.5 H 298 l 25.8,17.3 14.1,-5.2 c 15,6.7 28.7,8 40.9,2.3 18.5,10.8 37.2,11.9 56,3.5 0,-0.4 0,-0.8 0,-1.3 v -102 c 0,-8.6 -6.9,-15.5 -15.5,-15.8 v 0 l -243.6,0 v 0 c -8.6,0.3 -15.5,7.1 -15.5,15.8 v 85.4 l 0.2,0 z"
   id="path3008" /><path
   style="fill-rule:evenodd;fill:#ffffff"
   d="m 419.5,349.9 c 11,0.3 19.9,9.1 19.9,20.2 v 102 c 0,11 -8.4,20 -19.4,20.3 v 0 l -244.1,0 v 0 c -11,-0.3 -19.9,-9.1 -19.9,-20.2 v -102 c 0,-11.1 8.9,-19.9 19.9,-20.2 v 0 l 243.6,-0.1 0,0 0,0 z"
   id="path7" />
</g>
<g
   id="g5-1"
   transform="translate(-156,-349.9)"><path
     class="st0"
     d="m 283.6,400.7 c 3.2,0 5.9,2.6 5.9,5.9 v 20.7 c 0,3.2 -2.6,5.9 -5.9,5.9 H 205 c -3.2,0 -5.9,-2.6 -5.9,-5.9 v -20.7 c 0,-3.2 2.6,-5.9 5.9,-5.9 l 7.7,-23.6 c 0.9,-2.7 2.3,-5.2 5.2,-5.2 h 52.8 c 2.9,0 4.3,2.5 5.2,5.2 l 7.7,23.6 0,0 z m -62.8,-23.5 h 47 c 2.3,0 3.5,2 4.3,4.3 l 6.3,19.3 h -68.1 l 6,-19.3 c 0.6,-2.2 2.1,-4.3 4.5,-4.3 l 0,0 z m 63.3,68.7 v -11.1 h -16.3 v 11.1 c 0,4.5 3.7,8.2 8.2,8.2 4.4,0 8.1,-3.7 8.1,-8.2 l 0,0 z m -63.1,0 c 0,4.5 -3.7,8.2 -8.2,8.2 -4.5,0 -8.2,-3.7 -8.2,-8.2 V 434.8 H 221 v 11.1 l 0,0 z m -60.6,9.6 H 298 l 25.8,17.3 14.1,-5.2 c 15,6.7 28.7,8 40.9,2.3 18.5,10.8 37.2,11.9 56,3.5 0,-0.4 0,-0.8 0,-1.3 v -102 c 0,-8.6 -6.9,-15.5 -15.5,-15.8 v 0 l -243.6,0 v 0 c -8.6,0.3 -15.5,7.1 -15.5,15.8 v 85.4 l 0.2,0 z M 419.5,349.9 c 11,0.3 19.9,9.1 19.9,20.2 v 102 c 0,11 -8.4,20 -19.4,20.3 v 0 l -244.1,0 v 0 c -11,-0.3 -19.9,-9.1 -19.9,-20.2 v -102 c 0,-11.1 8.9,-19.9 19.9,-20.2 v 0 l 243.6,-0.1 0,0 0,0 z"
     id="path7-7"
     inkscape:connector-curvature="0"
     style="fill-rule:evenodd" /></g></svg>