<?xml version="1.0" encoding="UTF-8" standalone="no"?>
<!-- Generator: Adobe Illustrator 22.0.1, SVG Export Plug-In . SVG Version: 6.00 Build 0)  -->

<svg
   xmlns:dc="http://purl.org/dc/elements/1.1/"
   xmlns:cc="http://creativecommons.org/ns#"
   xmlns:rdf="http://www.w3.org/1999/02/22-rdf-syntax-ns#"
   xmlns:svg="http://www.w3.org/2000/svg"
   xmlns="http://www.w3.org/2000/svg"
   xmlns:sodipodi="http://sodipodi.sourceforge.net/DTD/sodipodi-0.dtd"
   xmlns:inkscape="http://www.inkscape.org/namespaces/inkscape"
   version="1.1"
   id="Слой_1"
   x="0px"
   y="0px"
   viewBox="0 0 283.39999 283.49999"
   xml:space="preserve"
   inkscape:version="0.48.2 r9819"
   width="283.4"
   height="283.4"
   sodipodi:docname="8.13.svg"><metadata
   id="metadata13"><rdf:RDF><cc:Work
       rdf:about=""><dc:format>image/svg+xml</dc:format><dc:type
         rdf:resource="http://purl.org/dc/dcmitype/StillImage" /></cc:Work></rdf:RDF></metadata><defs
   id="defs11" /><sodipodi:namedview
   pagecolor="#ffffff"
   bordercolor="#666666"
   borderopacity="1"
   objecttolerance="10"
   gridtolerance="10"
   guidetolerance="10"
   inkscape:pageopacity="0"
   inkscape:pageshadow="2"
   inkscape:window-width="1366"
   inkscape:window-height="705"
   id="namedview9"
   showgrid="false"
   fit-margin-top="0"
   fit-margin-left="0"
   fit-margin-right="0"
   fit-margin-bottom="0"
   inkscape:zoom="0.28031833"
   inkscape:cx="141.65"
   inkscape:cy="142.45001"
   inkscape:window-x="-8"
   inkscape:window-y="-8"
   inkscape:window-maximized="1"
   inkscape:current-layer="Слой_1" />
<style
   type="text/css"
   id="style3">
	.st0{fill-rule:evenodd;clip-rule:evenodd;}
</style>
<g
   id="g5"
   transform="translate(-156,-279.90002)">
	<path
   style="fill-rule:evenodd;fill:#ffffff"
   d="m 176,284.3 c -8.6,0.3 -15.5,7.1 -15.5,15.8 l 0,106.9 h 96.2 c 30.6,0 55.6,25 55.6,55.6 v 96.2 l 107.7,0 v 0 c 8.6,-0.3 15,-7.3 15,-15.8 l 0,-117.5 H 310.5 v -7.9 H 435 l 0,-117.5 c 0,-8.6 -6.9,-15.5 -15.5,-15.8 v 0 l -120.2,0 h 2.3 v 128.2 h -7.9 V 284.3 l -117.7,0 0,0 0,0 z"
   id="path3010" /><path
   style="fill-rule:evenodd;fill:#ffffff"
   d="m 160.4,435.9 0,107.2 c 0,8.6 6.9,15.5 15.5,15.8 v 0 l 107.4,0 v -97.8 c 0,-13.8 -11.3,-25.2 -25.2,-25.2 h -97.7 l 0,0 z"
   id="path3008" /><path
   style="fill-rule:evenodd;fill:#ffffff"
   d="m 419.5,279.9 c 11,0.3 19.9,9.1 19.9,20.2 l -0.1,243 c 0,11 -8.4,20 -19.4,20.3 v 0 l -244,0 v 0 c -11,-0.3 -19.9,-9.1 -19.9,-20.2 l 0,-243 c 0,-11.1 8.9,-19.9 19.9,-20.2 v 0 l 243.6,-0.1 0,0 0,0 z"
   id="path7" />
</g>
<g
   id="g5-1"
   transform="translate(-156,-279.90002)"><path
     class="st0"
     d="m 176,284.3 c -8.6,0.3 -15.5,7.1 -15.5,15.8 l 0,106.9 h 96.2 c 30.6,0 55.6,25 55.6,55.6 v 96.2 l 107.7,0 v 0 c 8.6,-0.3 15,-7.3 15,-15.8 l 0,-117.5 H 310.5 v -7.9 H 435 l 0,-117.5 c 0,-8.6 -6.9,-15.5 -15.5,-15.8 v 0 l -120.2,0 h 2.3 v 128.2 h -7.9 V 284.3 l -117.7,0 0,0 0,0 z m -15.6,151.6 0,107.2 c 0,8.6 6.9,15.5 15.5,15.8 v 0 l 107.4,0 v -97.8 c 0,-13.8 -11.3,-25.2 -25.2,-25.2 h -97.7 l 0,0 z m 259.1,-156 c 11,0.3 19.9,9.1 19.9,20.2 l -0.1,243 c 0,11 -8.4,20 -19.4,20.3 v 0 l -244,0 v 0 c -11,-0.3 -19.9,-9.1 -19.9,-20.2 l 0,-243 c 0,-11.1 8.9,-19.9 19.9,-20.2 v 0 l 243.6,-0.1 0,0 0,0 z"
     id="path7-7"
     inkscape:connector-curvature="0"
     style="fill-rule:evenodd" /></g></svg>