<?xml version="1.0" encoding="UTF-8" standalone="no"?>
<!-- Generator: Adobe Illustrator 22.0.1, SVG Export Plug-In . SVG Version: 6.00 Build 0)  -->

<svg
   xmlns:dc="http://purl.org/dc/elements/1.1/"
   xmlns:cc="http://creativecommons.org/ns#"
   xmlns:rdf="http://www.w3.org/1999/02/22-rdf-syntax-ns#"
   xmlns:svg="http://www.w3.org/2000/svg"
   xmlns="http://www.w3.org/2000/svg"
   xmlns:sodipodi="http://sodipodi.sourceforge.net/DTD/sodipodi-0.dtd"
   xmlns:inkscape="http://www.inkscape.org/namespaces/inkscape"
   version="1.1"
   id="Слой_1"
   x="0px"
   y="0px"
   viewBox="0 0 283.39999 142.5"
   xml:space="preserve"
   inkscape:version="0.48.2 r9819"
   width="283.4"
   height="142.5"
   sodipodi:docname="8.5.5.svg"><metadata
   id="metadata15"><rdf:RDF><cc:Work
       rdf:about=""><dc:format>image/svg+xml</dc:format><dc:type
         rdf:resource="http://purl.org/dc/dcmitype/StillImage" /></cc:Work></rdf:RDF></metadata><defs
   id="defs13" /><sodipodi:namedview
   pagecolor="#ffffff"
   bordercolor="#666666"
   borderopacity="1"
   objecttolerance="10"
   gridtolerance="10"
   guidetolerance="10"
   inkscape:pageopacity="0"
   inkscape:pageshadow="2"
   inkscape:window-width="1366"
   inkscape:window-height="705"
   id="namedview11"
   showgrid="false"
   fit-margin-top="0"
   fit-margin-left="0"
   fit-margin-right="0"
   fit-margin-bottom="0"
   inkscape:zoom="1.1212733"
   inkscape:cx="-71.747455"
   inkscape:cy="-70.172857"
   inkscape:window-x="-8"
   inkscape:window-y="-8"
   inkscape:window-maximized="1"
   inkscape:current-layer="Слой_1" />
<style
   type="text/css"
   id="style3">
	.st0{fill-rule:evenodd;clip-rule:evenodd;}
	.st1{fill-rule:evenodd;clip-rule:evenodd;fill:#B92B1E;}
</style>
<g
   id="g5"
   transform="translate(-156,-349.90002)">
	
	
</g>
<g
   style="font-size:68.02849579px;font-style:normal;font-variant:normal;font-weight:normal;font-stretch:normal;text-align:end;line-height:125%;letter-spacing:0px;word-spacing:0px;text-anchor:end;fill:#000000;fill-opacity:1;stroke:none;font-family:Russian Road Sign;-inkscape-font-specification:Russian Road Sign"
   id="text2989" />
<g
   style="font-size:52.29651642px;font-style:normal;font-variant:normal;font-weight:normal;font-stretch:normal;line-height:125%;letter-spacing:0px;word-spacing:0px;fill:#000000;fill-opacity:1;stroke:none;font-family:Russian Road Sign;-inkscape-font-specification:Russian Road Sign"
   id="text2993" />
<g
   style="font-size:67.60681915px;font-style:normal;font-variant:normal;font-weight:normal;font-stretch:normal;line-height:125%;letter-spacing:0px;word-spacing:0px;fill:#000000;fill-opacity:1;stroke:none;font-family:Russian Road Sign;-inkscape-font-specification:Russian Road Sign"
   id="text2989-4" />
<g
   style="font-size:52.29651642px;font-style:normal;font-variant:normal;font-weight:normal;font-stretch:normal;line-height:125%;letter-spacing:0px;word-spacing:0px;fill:#000000;fill-opacity:1;stroke:none;font-family:Russian Road Sign;-inkscape-font-specification:Russian Road Sign"
   id="text2993-0"><path
     style="fill:#ffffff"
     d="m 263.5,-2e-5 c 11,0.3 19.9,9.1 19.9,20.2 l 0,102 c 0,11 -8.4,20 -19.4,20.3 l 0,0 -244.1,0 0,0 c -11,-0.3 -19.9,-9.1 -19.9,-20.2 l 0,-102 c 0,-11.1 8.9,-19.9 19.9,-20.2 l 0,0 z"
     id="path3068"
     inkscape:connector-curvature="0"
     sodipodi:nodetypes="cssccccssccc" /><path
     style="fill:#ffffff"
     d="m 19.9,4.49998 c -8.6,0.3 -15.5,7.1 -15.5,15.8 l 0,102 c 0,8.6 6.9,15.5 15.5,15.8 l 0,0 244.1,0 0,0 c 8.6,-0.3 15,-7.3 15,-15.8 l 0,-102 c 0,-8.6 -6.9,-15.5 -15.5,-15.8 l 0,0 z"
     id="path3066"
     inkscape:connector-curvature="0"
     sodipodi:nodetypes="cssccccssccc" /></g>
<g
   id="g5-1"
   transform="translate(-156,-349.9)"><path
     class="st0"
     d="m 419.5,349.9 c 11,0.3 19.9,9.1 19.9,20.2 l 0,102 c 0,11 -8.4,20 -19.4,20.3 l 0,0 -244.1,0 0,0 c -11,-0.3 -19.9,-9.1 -19.9,-20.2 l 0,-102 c 0,-11.1 8.9,-19.9 19.9,-20.2 l 0,0 243.6,-0.1 z m -243.6,4.5 c -8.6,0.3 -15.5,7.1 -15.5,15.8 l 0,102 c 0,8.6 6.9,15.5 15.5,15.8 l 0,0 244.1,0 0,0 c 8.6,-0.3 15,-7.3 15,-15.8 l 0,-102 c 0,-8.6 -6.9,-15.5 -15.5,-15.8 l 0,0 -243.6,0 z m 37.9,110.2 c 2.6,0 4.7,2.1 4.7,4.7 0,2.6 -2.1,4.7 -4.7,4.7 -2.6,0 -4.7,-2.1 -4.7,-4.7 0,-2.5 2.1,-4.7 4.7,-4.7 z m 146.8,0 c 2.6,0 4.7,2.1 4.7,4.7 0,2.6 -2.1,4.7 -4.7,4.7 -2.6,0 -4.7,-2.1 -4.7,-4.7 -0.1,-2.5 2,-4.7 4.7,-4.7 z m -84.80514,-12.3 28.75651,0 0.15766,8.2 -28.78356,0 z"
     id="path7-7"
     inkscape:connector-curvature="0"
     style="fill-rule:evenodd"
     sodipodi:nodetypes="cssccccssccccccssccccsscccsccssscccsccccc" /><path
     class="st1"
     d="m 297.7,371.7 c 2.5,0 4.9,0.3 7.2,1 l -2.9,18.8 14.8,-11.9 c 3.4,3.4 6,7.7 7.2,12.5 l -17.8,6.9 17.8,6.9 c -1.3,4.8 -3.8,9.1 -7.2,12.5 l -14.8,-12 2.9,18.8 c -2.3,0.6 -4.7,1 -7.2,1 -2.5,0 -4.9,-0.3 -7.2,-1 l 2.9,-18.8 -14.8,11.9 c -3.4,-3.4 -6,-7.7 -7.2,-12.5 l 17.8,-6.9 -17.8,-6.9 c 1.3,-4.8 3.8,-9.1 7.2,-12.5 l 14.8,11.9 -2.9,-18.8 c 2.3,-0.6 4.7,-0.9 7.2,-0.9 l 0,0 z"
     id="path9-4"
     inkscape:connector-curvature="0"
     style="fill:#b92b1e;fill-rule:evenodd" /></g><text
   xml:space="preserve"
   style="font-size:68.02849579px;font-style:normal;font-variant:normal;font-weight:normal;font-stretch:normal;text-align:end;line-height:125%;letter-spacing:0px;word-spacing:0px;text-anchor:end;fill:#000000;fill-opacity:1;stroke:none;font-family:Russian Road Sign;-inkscape-font-specification:Russian Road Sign"
   x="55.042736"
   y="126.54288"
   id="text2989-0"
   sodipodi:linespacing="125%"><tspan
     sodipodi:role="line"
     id="tspan2991-9"
     x="55.042736"
     y="126.54288"
     attr="hour1">8</tspan></text>
<text
   xml:space="preserve"
   style="font-size:52.29651642px;font-style:normal;font-variant:normal;font-weight:normal;font-stretch:normal;line-height:125%;letter-spacing:0px;word-spacing:0px;fill:#000000;fill-opacity:1;stroke:none;font-family:Russian Road Sign;-inkscape-font-specification:Russian Road Sign"
   x="61.844387"
   y="124.59058"
   id="text2993-4"
   sodipodi:linespacing="125%"><tspan
     sodipodi:role="line"
     id="tspan2995-8"
     x="61.844387"
     y="124.59058"
     dx="0 -2.4889741"
     attr="minute1">00</tspan></text>
<text
   xml:space="preserve"
   style="font-size:67.60681915px;font-style:normal;font-variant:normal;font-weight:normal;font-stretch:normal;line-height:125%;letter-spacing:0px;word-spacing:0px;fill:#000000;fill-opacity:1;stroke:none;font-family:Russian Road Sign;-inkscape-font-specification:Russian Road Sign"
   x="209.55002"
   y="124.18858"
   id="text2989-4-8"
   sodipodi:linespacing="125%"><tspan
     sodipodi:role="line"
     id="tspan2991-0-2"
     x="209.55002"
     y="124.18858"
     style="text-align:end;text-anchor:end"
     dx="0"
     attr="hour2">17</tspan></text>
<text
   xml:space="preserve"
   style="font-size:52.29651642px;font-style:normal;font-variant:normal;font-weight:normal;font-stretch:normal;line-height:125%;letter-spacing:0px;word-spacing:0px;fill:#000000;fill-opacity:1;stroke:none;font-family:Russian Road Sign;-inkscape-font-specification:Russian Road Sign"
   x="210.95404"
   y="122.83305"
   id="text2993-0-4"
   sodipodi:linespacing="125%"><tspan
     sodipodi:role="line"
     id="tspan2995-9-5"
     x="210.95404"
     y="122.83305"
     dx="0 -2.4889741"
     attr="minute2">30</tspan></text>
</svg>