<?xml version="1.0" encoding="UTF-8" standalone="no"?>
<!-- Generator: Adobe Illustrator 22.0.1, SVG Export Plug-In . SVG Version: 6.00 Build 0)  -->

<svg
   xmlns:dc="http://purl.org/dc/elements/1.1/"
   xmlns:cc="http://creativecommons.org/ns#"
   xmlns:rdf="http://www.w3.org/1999/02/22-rdf-syntax-ns#"
   xmlns:svg="http://www.w3.org/2000/svg"
   xmlns="http://www.w3.org/2000/svg"
   xmlns:sodipodi="http://sodipodi.sourceforge.net/DTD/sodipodi-0.dtd"
   xmlns:inkscape="http://www.inkscape.org/namespaces/inkscape"
   version="1.1"
   id="Слой_1"
   x="0px"
   y="0px"
   viewBox="0 0 283.39999 142.5"
   xml:space="preserve"
   inkscape:version="0.48.2 r9819"
   width="283.4"
   height="142.5"
   sodipodi:docname="8.6.2.svg"><metadata
   id="metadata13"><rdf:RDF><cc:Work
       rdf:about=""><dc:format>image/svg+xml</dc:format><dc:type
         rdf:resource="http://purl.org/dc/dcmitype/StillImage" /></cc:Work></rdf:RDF></metadata><defs
   id="defs11" /><sodipodi:namedview
   pagecolor="#ffffff"
   bordercolor="#666666"
   borderopacity="1"
   objecttolerance="10"
   gridtolerance="10"
   guidetolerance="10"
   inkscape:pageopacity="0"
   inkscape:pageshadow="2"
   inkscape:window-width="640"
   inkscape:window-height="696"
   id="namedview9"
   showgrid="false"
   fit-margin-top="0"
   fit-margin-left="0"
   fit-margin-right="0"
   fit-margin-bottom="0"
   inkscape:zoom="0.28031833"
   inkscape:cx="-25.812124"
   inkscape:cy="-289.64161"
   inkscape:window-x="0"
   inkscape:window-y="0"
   inkscape:window-maximized="0"
   inkscape:current-layer="Слой_1" />
<style
   type="text/css"
   id="style3">
	.st0{fill-rule:evenodd;clip-rule:evenodd;}
</style>
<g
   id="g5"
   transform="translate(-156,-349.90002)">
	<path
   style="fill:#ffffff;fill-rule:evenodd"
   d="m 419.5,349.9 c 11,0.3 19.9,9.1 19.9,20.2 l 0,102 c 0,11 -8.4,20 -19.4,20.3 l 0,0 -244.1,0 0,0 c -11,-0.3 -19.9,-9.1 -19.9,-20.2 l 0,-102 c 0,90.20571 18.47292,-20.75494 19.9,-20.2 l 0,0 243.6,-0.1 z"
   id="path3016"
   inkscape:connector-curvature="0"
   sodipodi:nodetypes="cssccccsscccc" />
</g>
<g
   id="g5-1"
   transform="translate(-156,-349.9)"><path
     class="st0"
     d="m 419.5,349.9 c 11,0.3 19.9,9.1 19.9,20.2 v 102 c 0,11 -8.4,20 -19.4,20.3 v 0 l -244.1,0 v 0 c -11,-0.3 -19.9,-9.1 -19.9,-20.2 v -102 c 0,-11.1 8.9,-19.9 19.9,-20.2 v 0 l 243.6,-0.1 0,0 0,0 z M 435,455.8 H 297.1 v 13.1 H 160.4 v -98.8 c 0,-8.6 6.9,-15.5 15.5,-15.8 v 0 l 243.6,0 v 0 c 8.6,0.3 15.5,7.1 15.5,15.8 v 85.7 l 0,0 z m -162.1,1.8 c 0.9,4.4 -1.9,8.7 -6.3,9.7 -4.4,0.9 -8.7,-1.9 -9.7,-6.3 l 0,0 -2.3,-10.9 16,-3.4 2.3,10.9 0,0 0,0 z m 61.7,-13.1 0,0 -2.3,-10.9 -16,3.4 2.3,10.9 0,0 c 0.9,4.4 5.3,7.2 9.7,6.3 4.4,-1 7.3,-5.3 6.3,-9.7 l 0,0 z m -76.2,-54 46,-9.8 c 2.3,-0.5 3.9,1.3 5.1,3.3 l 10.2,17.6 -66.7,14.2 1.8,-20.1 c 0.2,-2.4 1.3,-4.7 3.6,-5.2 l 0,0 z m 66.3,9.8 c 3.2,-0.7 6.3,1.4 7,4.5 l 4.3,20.3 c 0.7,3.2 -1.4,6.3 -4.5,7 l -76.8,16.4 c -3.2,0.7 -6.3,-1.4 -7,-4.5 l -4.3,-20.3 c -0.7,-3.2 1.4,-6.3 4.5,-7 l 2.6,-24.7 c 0.3,-2.9 1.2,-5.6 4,-6.2 l 51.6,-11 c 2.8,-0.6 4.8,1.5 6.2,4 l 12.4,21.5 0,0 z"
     id="path7-7"
     inkscape:connector-curvature="0"
     style="fill-rule:evenodd" /></g></svg>