<?xml version="1.0" encoding="UTF-8" standalone="no"?>
<!-- Created with Inkscape (http://www.inkscape.org/) -->

<svg
   xmlns:dc="http://purl.org/dc/elements/1.1/"
   xmlns:cc="http://creativecommons.org/ns#"
   xmlns:rdf="http://www.w3.org/1999/02/22-rdf-syntax-ns#"
   xmlns:svg="http://www.w3.org/2000/svg"
   xmlns="http://www.w3.org/2000/svg"
   version="1.1"
   width="46.35759"
   height="97.803291"
   id="svg3839">
  <defs
     id="defs3" />
  <metadata
     id="metadata4">
    <rdf:RDF>
      <cc:Work
         rdf:about="">
        <dc:format>image/svg+xml</dc:format>
        <dc:type
           rdf:resource="http://purl.org/dc/dcmitype/StillImage" />
        <dc:title></dc:title>
      </cc:Work>
    </rdf:RDF>
  </metadata>
  <g
     transform="translate(-464.47049,-447.76114)"
     id="layer1">
    <path
       d="m 490.54085,519.27683 0,-26.28759 5,-4.92481 5,-4.92482 0,6.91241 c 0,3.8651 0.37405,6.4936 0.84848,5.96241 0.46667,-0.5225 2.78129,-5.82514 5.14362,-11.78364 l 4.29513,-10.83364 -3.27028,-9.16636 c -1.79865,-5.0415 -3.75624,-10.85386 -4.3502,-12.91636 -1.6842,-5.84828 -2.65614,-4.45179 -2.78395,4 l -0.11719,7.75 -6.41126,5.94291 -6.41126,5.94291 -6.47154,-6.41402 -6.47155,-6.41403 0,-7.47889 c 0,-4.11366 -0.37725,-7.05142 -0.8384,-6.52888 -0.46113,0.5225 -2.72696,6.38591 -5.03518,13.02981 l -4.19678,12.07981 4.37634,11.17802 c 2.40699,6.1479 4.67282,11.47449 5.03518,11.83685 0.36236,0.36236 0.65884,-2.43674 0.65884,-6.22023 l 0,-6.87908 5,4.92482 5,4.92481 0,26.28759 0,26.2876 3,0 3,0 z"
       id="path7-7"
       style="fill:#000000" />
  </g>
</svg>
