<?xml version="1.0" encoding="UTF-8" standalone="no"?>
<!-- Created with Inkscape (http://www.inkscape.org/) -->

<svg
   xmlns:dc="http://purl.org/dc/elements/1.1/"
   xmlns:cc="http://creativecommons.org/ns#"
   xmlns:rdf="http://www.w3.org/1999/02/22-rdf-syntax-ns#"
   xmlns:svg="http://www.w3.org/2000/svg"
   xmlns="http://www.w3.org/2000/svg"
   version="1.1"
   width="33.941174"
   height="135.90361"
   id="svg3839">
  <defs
     id="defs3" />
  <metadata
     id="metadata4">
    <rdf:RDF>
      <cc:Work
         rdf:about="">
        <dc:format>image/svg+xml</dc:format>
        <dc:type
           rdf:resource="http://purl.org/dc/dcmitype/StillImage" />
        <dc:title></dc:title>
      </cc:Work>
    </rdf:RDF>
  </metadata>
  <g
     transform="translate(-449.99991,-480.82691)"
     id="layer1">
    <path
       d="m 476.41869,569.50569 0.25989,-46.63873 3.43109,0 c 1.8871,0 3.60477,-0.3375 3.81703,-0.75 0.21226,-0.4125 -1.95104,-10.2 -4.80735,-21.75 -2.8563,-11.55 -5.48593,-20.31837 -5.84362,-19.48526 -1.35067,3.14586 -10.28911,40.97974 -9.79776,41.4711 0.28279,0.28278 2.01416,0.51416 3.8475,0.51416 l 3.33333,0 0,13.15076 0,13.15077 -5.39213,-4.90077 c -5.38512,-4.89439 -5.39227,-4.90889 -5.5,-11.15076 -0.0593,-3.4375 -0.48936,-6.25 -0.95564,-6.25 -1.52553,0 -9.41565,22.81431 -8.77411,25.37039 0.32765,1.30548 2.49861,6.3687 4.82434,11.2516 l 4.22861,8.87801 0.53447,-5.88665 0.53446,-5.88665 5.25,4.72932 5.25,4.72932 0,10.90733 c 0,10.24066 -0.12224,10.90733 -2,10.90733 -1.66667,0 -2,-0.66667 -2,-4 0,-3.90476 -0.0833,-4 -3.5,-4 l -3.5,0 0,12 0,12 3.5,0 c 3.41667,0 3.5,-0.0952 3.5,-4 0,-3.33333 0.33333,-4 2,-4 1.84187,0 2,0.66667 2,8.43178 l 0,8.43178 2.75,-0.29305 2.75,-0.29304 z"
       id="path7"
       style="fill:#000000" />
  </g>
</svg>
