<?xml version="1.0" encoding="UTF-8" standalone="no"?>
<!-- Created with Inkscape (http://www.inkscape.org/) -->

<svg
   xmlns:dc="http://purl.org/dc/elements/1.1/"
   xmlns:cc="http://creativecommons.org/ns#"
   xmlns:rdf="http://www.w3.org/1999/02/22-rdf-syntax-ns#"
   xmlns:svg="http://www.w3.org/2000/svg"
   xmlns="http://www.w3.org/2000/svg"
   version="1.1"
   width="127.90659"
   height="79.923378"
   id="svg3000">
  <defs
     id="defs3" />
  <metadata
     id="metadata4">
    <rdf:RDF>
      <cc:Work
         rdf:about="">
        <dc:format>image/svg+xml</dc:format>
        <dc:type
           rdf:resource="http://purl.org/dc/dcmitype/StillImage" />
        <dc:title></dc:title>
      </cc:Work>
    </rdf:RDF>
  </metadata>
  <g
     transform="translate(-261.76099,-443.8291)"
     id="layer1">
    <path
       d="m 281.61206,522.35025 c 3.6153,-1.86955 7.66281,-10.01371 8.85834,-17.82422 l 0.88896,-5.80768 -3.38488,-2.58177 c -1.86168,-1.41997 -3.50823,-2.40652 -3.65899,-2.19232 -0.15076,0.2142 -0.80363,3.04309 -1.45081,6.28643 -1.31286,6.57934 -3.60689,9.83824 -6.61483,9.39704 -3.41954,-0.50157 -5.51848,-5.73113 -6.62396,-16.50374 -1.83056,-17.83833 1.37665,-34.34494 6.82319,-35.11705 3.2922,-0.4667 4.8614,1.24642 6.30649,6.88488 1.35003,5.26754 1.79092,5.5888 5.20421,3.79218 3.35499,-1.76592 3.55564,-2.64129 2.06758,-9.02003 -1.72505,-7.39463 -3.59369,-11.06398 -6.9982,-13.74197 -5.68453,-4.47145 -12.06324,-1.58685 -16.38953,7.41171 -4.00023,8.32039 -5.35399,18.52295 -4.73579,35.69123 0.55864,15.51436 1.92595,21.6178 6.38106,28.48403 4.01918,6.19437 7.94957,7.62214 13.32716,4.84128 z m 63.89306,-0.0935 c 5.87429,-3.47004 9.5732,-12.43677 11.22277,-27.20576 2.41992,-21.66613 -2.40586,-44.39364 -10.47036,-49.31122 -10.48798,-6.39537 -19.0316,3.5694 -21.70772,25.31861 -1.32263,10.74921 -0.56428,26.82627 1.67014,35.40707 3.65935,14.05293 11.44112,20.42488 19.28517,15.7913 z m -8.16795,-14.2096 c -3.34034,-3.69103 -4.94287,-9.68544 -5.45805,-20.41626 -0.78314,-16.31214 2.10046,-28.0903 7.18997,-29.36769 6.87018,-1.7243 10.02337,6.19537 9.98176,25.07055 -0.0304,13.78365 -1.12218,19.59714 -4.48278,23.86945 -2.41067,3.06467 -4.95268,3.36136 -7.2309,0.84395 z m -25.92908,-17.4634 0.26405,-31.75 4.98595,0 4.98595,0 0,-7.02822 0,-7.02822 -13.75,0.27822 -13.75,0.27822 0,6.5 0,6.5 4.75,0.30479 4.75,0.30479 0,31.27854 c 0,17.2032 0.32133,31.59987 0.71406,31.99261 0.39273,0.39273 2.08023,0.58023 3.75,0.41666 l 3.03594,-0.29739 z m 58,0 0.26404,-31.75 5.97191,0 5.97191,0 0.26404,31.75 0.26405,31.75 3.5,0 3.5,0 0.26177,-38.7783 0.26177,-38.77829 -13.76177,0.27829 -13.76177,0.2783 -0.26242,37.49645 c -0.14433,20.62304 -0.0349,38.08929 0.24313,38.81387 0.31304,0.81578 1.74567,1.19791 3.76241,1.00355 l 3.25688,-0.31387 z"
       id="path2987"
       style="fill:#000000" />
  </g>
</svg>
