<?xml version="1.0" encoding="utf-8"?>
<svg version="1.1" id="_x31_" xmlns="http://www.w3.org/2000/svg" xmlns:xlink="http://www.w3.org/1999/xlink" x="0px" y="0px"
	 viewBox="0 0 55 55" style="enable-background:new 0 0 55 55;" xml:space="preserve">
<style type="text/css">
	.st0{fill:#FFFFFF;}
	.st1{fill:#263045;}
	.st2{fill:#00990D;}
</style>
<g id="_x34_">
	<polygon class="st0" points="46.3,15.6 32.6,15.6 32.6,1.8 8.7,1.8 8.7,53.1 46.3,53.1 	"/>
</g>
<g id="_x33_">
	<path class="st1" d="M34.4,0.2H7v54.5h40.9V15.6v-1.2v-0.6C42.6,8.5,39.7,5.5,34.4,0.2z M46.3,53.1H8.7V1.8h23.9v13.7h13.7V53.1z"
		/>
</g>
<g id="_x32_">
	<g>
		<path class="st2" d="M1.9,27.5v17.1h51.2V27.5H1.9z M21.2,39.8c-0.2,0.4-0.5,0.7-0.9,1c-0.4,0.2-0.8,0.4-1.3,0.5
			c-0.5,0.1-1,0.2-1.6,0.2c-0.6,0-1.1,0-1.6-0.1s-1-0.2-1.3-0.4v-2.3c0.4,0.4,0.9,0.6,1.4,0.8s1,0.3,1.5,0.3c0.3,0,0.6,0,0.8-0.1
			c0.2-0.1,0.4-0.1,0.5-0.2c0.1-0.1,0.3-0.2,0.3-0.3c0.1-0.1,0.1-0.3,0.1-0.4c0-0.2-0.1-0.4-0.2-0.5c-0.1-0.2-0.3-0.3-0.5-0.4
			c-0.2-0.1-0.4-0.3-0.7-0.4c-0.3-0.1-0.6-0.3-0.9-0.4C16,36.4,15.4,36,15,35.5s-0.6-1.1-0.6-1.8c0-0.5,0.1-1,0.3-1.4
			c0.2-0.4,0.5-0.7,0.9-1s0.8-0.4,1.3-0.6s1-0.2,1.6-0.2c0.5,0,1,0,1.4,0.1c0.4,0.1,0.8,0.2,1.2,0.3v2.2c-0.2-0.1-0.4-0.2-0.6-0.3
			c-0.2-0.1-0.4-0.2-0.6-0.2c-0.2-0.1-0.4-0.1-0.6-0.1s-0.4,0-0.6,0c-0.3,0-0.5,0-0.7,0.1c-0.2,0.1-0.4,0.1-0.6,0.2S17,33,17,33.1
			s-0.1,0.3-0.1,0.4c0,0.2,0,0.3,0.1,0.5s0.2,0.3,0.4,0.4c0.2,0.1,0.4,0.2,0.6,0.4c0.2,0.1,0.5,0.2,0.8,0.4c0.4,0.2,0.8,0.4,1.1,0.6
			c0.3,0.2,0.6,0.4,0.9,0.7s0.4,0.5,0.5,0.8c0.1,0.3,0.2,0.7,0.2,1.1C21.5,38.9,21.4,39.4,21.2,39.8z M30.6,33.3
			c-0.7-0.4-1.5-0.6-2.4-0.6c-1,0-1.8,0.3-2.4,0.9c-0.6,0.6-0.9,1.4-0.9,2.5c0,1,0.3,1.8,0.8,2.4s1.3,0.9,2.3,0.9
			c0.9,0,1.7-0.2,2.5-0.7v2.1c-0.8,0.4-1.7,0.5-3,0.5c-1.6,0-2.8-0.5-3.8-1.4c-0.9-0.9-1.4-2.2-1.4-3.7c0-1.7,0.5-3,1.5-4
			c1-1,2.4-1.5,4-1.5c1,0,1.9,0.1,2.6,0.4V33.3z M37.6,41.2H35l-3.5-10.4H34l2.2,7.2c0.1,0.4,0.2,0.7,0.2,1h0c0-0.3,0.1-0.7,0.2-1.1
			l2.2-7.2h2.4L37.6,41.2z"/>
	</g>
</g>
</svg>
