<?xml version="1.0" encoding="utf-8"?>
<svg version="1.1" id="_x31_" xmlns="http://www.w3.org/2000/svg" xmlns:xlink="http://www.w3.org/1999/xlink" x="0px" y="0px"
	 viewBox="0 0 55 55" style="enable-background:new 0 0 55 55;" xml:space="preserve">
<style type="text/css">
	.st0{fill:#f3f3f3;}
</style>
<path id="_x32_" class="st0" d="M15,54.5c-2.2,0-3.9-1.8-3.9-3.9V40.4H6c-3.1,0-5.7-2.5-5.7-5.7V17.2c0-3.1,2.5-5.7,5.7-5.7h5.1V6.1
	c0-3.1,2.5-5.7,5.7-5.7h21.4c3.1,0,5.7,2.5,5.7,5.7v5.4H49c3.1,0,5.7,2.5,5.7,5.7v17.5c0,3.1-2.5,5.7-5.7,5.7h-5.3v10.3
	c0,2.2-1.8,3.9-3.9,3.9H15z M13.9,50.6c0,0.6,0.5,1.1,1.1,1.1h24.9c0.6,0,1.1-0.5,1.1-1.1V33.8h-27V50.6z M49,37.5
	c1.5,0,2.8-1.3,2.8-2.8V17.2c0-1.5-1.3-2.8-2.8-2.8H5.9c-1.5,0-2.8,1.2-2.8,2.8v17.5c0,1.6,1.3,2.8,2.8,2.8h5.1v-3.7l-2.2,0
	c-0.8,0-1.5-0.6-1.5-1.4c0-0.8,0.6-1.5,1.4-1.5l37,0c0.8,0,1.5,0.6,1.5,1.4c0,0.8-0.6,1.5-1.4,1.5h-2.1v3.7H49z M40.9,11.6V6.1
	c0-1.6-1.3-2.8-2.8-2.8H16.7c-1.5,0-2.8,1.3-2.8,2.8v5.5H40.9z M37,40.7c0.5,0,0.9-0.4,0.9-0.9s-0.4-0.9-0.9-0.9H17.7
	c-0.5,0-0.9,0.4-0.9,0.9s0.4,0.9,0.9,0.9H37z M37.1,46.9c0.5,0,0.9-0.4,0.9-0.9c0-0.5-0.4-0.9-0.9-0.9H17.8c-0.5,0-0.9,0.4-0.9,0.9
	s0.4,0.9,0.9,0.9H37.1z M45.2,20.4c0.8,0,1.4-0.6,1.4-1.4s-0.6-1.4-1.4-1.4h-3.1c-0.8,0-1.4,0.6-1.4,1.4s0.6,1.4,1.4,1.4H45.2z"/>
</svg>
