<?xml version="1.0" encoding="utf-8"?>
<svg version="1.1" id="_x31_" xmlns="http://www.w3.org/2000/svg" xmlns:xlink="http://www.w3.org/1999/xlink" x="0px" y="0px"
	 viewBox="0 0 18 18" style="enable-background:new 0 0 18 18;" xml:space="preserve">
<style type="text/css">
	.st0{fill-rule:evenodd;clip-rule:evenodd;fill:#263045;}
</style>
<path id="_x32_" class="st0" d="M10.9,9.9l7.1,2.2V14c0,0.9-0.3,1.7-0.8,2.4L0,11.1V6.6l6.7,2.1l8.4-8.4c1.3,0.4,2.3,1.4,2.7,2.8
	L10.9,9.9z"/>
</svg>
