<?xml version="1.0" encoding="utf-8"?>
<svg version="1.1" id="Capa_1" xmlns="http://www.w3.org/2000/svg" xmlns:xlink="http://www.w3.org/1999/xlink" x="0px" y="0px"
	 viewBox="0 0 54.96 54.96" style="enable-background:new 0 0 54.96 54.96;" xml:space="preserve">
<style type="text/css">
	.st0{display:none;}
	.st1{display:inline;fill:#263045;}
	.st2{fill:#263045;}
</style>
<g class="st0">
	<path class="st1" d="M13.31,29.53h-0.06v8.16c0,0.38-0.31,0.68-0.68,0.68h-0.97c-0.38,0-0.68-0.31-0.68-0.68V17.69
		c0-0.38,0.31-0.68,0.68-0.68h0.97c0.38,0,0.68,0.31,0.68,0.68v1.89h0.06c1.15-1.94,2.84-2.92,5.06-2.92c1.89,0,3.36,0.66,4.42,1.97
		s1.59,3.06,1.59,5.27c0,2.45-0.6,4.41-1.79,5.88c-1.19,1.47-2.82,2.21-4.89,2.21C15.8,31.99,14.34,31.17,13.31,29.53z M13.25,23.63
		v2.04c0,1.21,0.39,2.24,1.18,3.08c0.79,0.84,1.78,1.26,2.99,1.26c1.42,0,2.53-0.54,3.34-1.63c0.8-1.09,1.21-2.6,1.21-4.53
		c0-1.63-0.38-2.91-1.13-3.83s-1.77-1.39-3.06-1.39c-1.36,0-2.46,0.47-3.29,1.42C13.67,21.01,13.25,22.2,13.25,23.63z"/>
	<path class="st1" d="M28.78,13.29c-0.42,0-0.78-0.14-1.07-0.43c-0.3-0.29-0.44-0.65-0.44-1.09c0-0.44,0.15-0.8,0.44-1.09
		c0.3-0.29,0.65-0.44,1.07-0.44c0.43,0,0.79,0.15,1.09,0.44c0.3,0.29,0.45,0.65,0.45,1.09c0,0.42-0.15,0.78-0.45,1.07
		C29.57,13.15,29.21,13.29,28.78,13.29z M29.24,31.64h-0.97c-0.38,0-0.68-0.31-0.68-0.68V17.69c0-0.38,0.31-0.68,0.68-0.68h0.97
		c0.38,0,0.68,0.31,0.68,0.68v13.26C29.92,31.34,29.62,31.64,29.24,31.64z"/>
	<path class="st1" d="M44.03,30.57c0,0.25-0.13,0.49-0.35,0.6c-1.05,0.54-2.26,0.82-3.65,0.82c-2.09,0-3.77-0.68-5.05-2.04
		c-1.28-1.36-1.92-3.12-1.92-5.28c0-2.41,0.69-4.35,2.07-5.81c1.38-1.46,3.22-2.19,5.53-2.19c1.11,0,2.11,0.18,2.99,0.53
		c0.25,0.1,0.41,0.36,0.41,0.63v0.76c0,0.49-0.51,0.84-0.95,0.63c-0.81-0.39-1.65-0.58-2.53-0.58c-1.5,0-2.72,0.54-3.68,1.61
		c-0.96,1.07-1.44,2.48-1.44,4.22c0,1.72,0.45,3.07,1.35,4.06c0.9,0.99,2.11,1.49,3.62,1.49c0.91,0,1.78-0.22,2.61-0.65
		c0.45-0.23,0.99,0.1,0.99,0.61V30.57z"/>
</g>
<path class="st2" d="M24.26,54.82c-1.72,0-3.12-1.4-3.12-3.12v-1.76c-1.76-0.5-3.46-1.2-5.06-2.09l-1.24,1.24
	c-0.56,0.56-1.37,0.89-2.21,0.89s-1.64-0.32-2.21-0.89l-4.55-4.55c-0.59-0.59-0.91-1.37-0.91-2.21c0-0.83,0.32-1.62,0.91-2.21
	l1.24-1.24c-0.9-1.6-1.6-3.3-2.1-5.06H3.26c-1.72,0-3.12-1.4-3.12-3.12v-6.44c0-1.72,1.4-3.12,3.12-3.12h1.76
	c0.49-1.76,1.2-3.46,2.09-5.06l-1.24-1.24c-0.59-0.59-0.91-1.37-0.91-2.21c0-0.83,0.32-1.62,0.91-2.21l4.55-4.55
	c0.56-0.56,1.37-0.89,2.21-0.89c0.84,0,1.64,0.32,2.21,0.89l1.24,1.24c1.6-0.9,3.3-1.6,5.06-2.09V3.26c0-1.72,1.4-3.12,3.12-3.12
	h6.44c1.72,0,3.12,1.4,3.12,3.12v1.76c1.76,0.5,3.46,1.2,5.06,2.09l1.24-1.24c0.56-0.56,1.37-0.89,2.21-0.89
	c0.84,0,1.64,0.32,2.21,0.89l4.55,4.55C49.68,11.02,50,11.8,50,12.63c0,0.83-0.32,1.62-0.91,2.21l-1.24,1.24
	c0.89,1.59,1.6,3.29,2.1,5.06h1.76c1.72,0,3.12,1.4,3.12,3.12v6.44c0,1.72-1.4,3.12-3.12,3.12h-1.76c-0.5,1.76-1.2,3.46-2.1,5.06
	l1.24,1.24C49.68,40.71,50,41.5,50,42.33c0,0.83-0.32,1.62-0.91,2.21l-4.55,4.55c-0.57,0.56-1.37,0.89-2.21,0.89
	s-1.64-0.32-2.21-0.89l-1.24-1.24c-1.6,0.89-3.3,1.6-5.06,2.09v1.76c0,1.72-1.4,3.12-3.12,3.12H24.26z M16.58,45.03
	c1.92,1.19,4.01,2.06,6.21,2.57l1.04,0.24v3.86c0,0.24,0.2,0.44,0.44,0.44h6.44c0.24,0,0.44-0.2,0.44-0.44v-3.86l1.04-0.24
	c2.2-0.51,4.29-1.38,6.21-2.57l0.9-0.56l2.73,2.73c0.08,0.08,0.19,0.13,0.31,0.13c0.12,0,0.23-0.05,0.31-0.13l4.55-4.55
	c0.08-0.08,0.13-0.19,0.13-0.31c0-0.12-0.05-0.23-0.13-0.31l-2.73-2.73l0.56-0.9c1.19-1.92,2.06-4.01,2.57-6.21l0.24-1.04h3.86
	c0.24,0,0.44-0.2,0.44-0.44v-6.44c0-0.24-0.2-0.44-0.44-0.44h-3.86l-0.24-1.04c-0.51-2.2-1.38-4.29-2.57-6.21l-0.56-0.9l2.73-2.73
	c0.08-0.08,0.13-0.19,0.13-0.31c0-0.12-0.05-0.23-0.13-0.31l-4.55-4.55c-0.08-0.08-0.19-0.13-0.31-0.13c-0.12,0-0.23,0.05-0.31,0.13
	l-2.73,2.73l-0.9-0.56c-1.92-1.19-4-2.06-6.21-2.57l-1.04-0.24V3.26c0-0.24-0.2-0.44-0.44-0.44h-6.44c-0.24,0-0.44,0.2-0.44,0.44
	v3.86l-1.04,0.24c-2.2,0.51-4.29,1.38-6.21,2.57l-0.9,0.56l-2.73-2.73c-0.08-0.08-0.19-0.13-0.31-0.13c-0.12,0-0.23,0.05-0.31,0.13
	l-4.55,4.55c-0.08,0.08-0.13,0.19-0.13,0.31c0,0.12,0.05,0.23,0.13,0.31l2.73,2.73l-0.56,0.9c-1.19,1.92-2.06,4-2.57,6.21
	l-0.24,1.04H3.26c-0.24,0-0.44,0.2-0.44,0.44v6.44c0,0.24,0.2,0.44,0.44,0.44h3.86l0.24,1.04c0.51,2.2,1.38,4.29,2.57,6.21l0.56,0.9
	l-2.73,2.73c-0.08,0.08-0.13,0.19-0.13,0.31c0,0.12,0.05,0.23,0.13,0.31l4.55,4.55c0.08,0.08,0.19,0.13,0.31,0.13
	s0.23-0.05,0.31-0.13l2.73-2.73L16.58,45.03z M27.48,37.82c-5.7,0-10.34-4.64-10.34-10.34s4.64-10.34,10.34-10.34
	s10.34,4.64,10.34,10.34S33.18,37.82,27.48,37.82z M27.48,19.82c-4.22,0-7.66,3.44-7.66,7.66s3.44,7.66,7.66,7.66
	s7.66-3.44,7.66-7.66S31.71,19.82,27.48,19.82z"/>
</svg>
