<?xml version="1.0" encoding="utf-8"?>
<svg version="1.1" id="_x30_" xmlns="http://www.w3.org/2000/svg" xmlns:xlink="http://www.w3.org/1999/xlink" x="0px" y="0px"
	 viewBox="0 0 483 483" style="enable-background:new 0 0 483 483;" xml:space="preserve">
<style type="text/css">
	.st0{fill:#263045;}
	.st1{fill:#FFFFFF;}
</style>
<path id="_x31_" class="st0" d="M91.9,334.5c46.3-11.7,84-38.2,84-38.2l29.5,92.9l5.5,17.4l0.1-0.2l4.8,14.9l15.5-43.9
	c-38.1-53.2,7.7-52.7,10.2-52.5c2.5,0,48.3-0.6,10.2,52.5l15.5,43.9l4.8-14.9l0.1,0.2l5.5-17.4l29.4-92.9c0,0,37.6,26.4,84,38.2
	c31.4,8,35.6,41.8,35.2,62.6c35.4-42,56.8-96.3,56.8-155.6C483,108.1,374.9,0,241.5,0S0,108.1,0,241.5c0,59.3,21.4,113.6,56.9,155.7
	C56.3,376.3,60.4,342.5,91.9,334.5z M155.3,171.2c-1.4-4.1-2.5-8.3-3.2-12.3c-2.8-14-3.4-27-0.2-39.3c3.9-16.6,12.8-29.9,22.9-40.3
	c6.3-6.8,13.7-12.7,21.2-17.6c3.1-2.2,6.4-4.1,9.9-6c3.4-1.7,7-3.3,10.8-4.6c6-2,12.2-3.3,18.8-3.6c20.4-1.7,35.9,3.3,47,10
	c16.6,9.2,22.9,21.3,22.9,21.3s38.1,2.6,25.2,80c-0.8,4-1.8,8.1-3.3,12.3c7.6-0.8,16.6,3.7,8,33.4c-6.1,21.9-11.8,28-16.2,28.3
	c-4.1,25.8-24.8,58.7-57.1,70.4c-13.4,4.9-28.2,4.8-41.8,0.1c-32.9-11.6-52.9-44.6-56.9-70.6c-4.4-0.3-10-6.4-16.3-28.2
	C138.7,174.9,147.8,170.5,155.3,171.2z"/>
<path id="_x32_" class="st1" d="M391,334.5c-46.3-11.8-84-38.2-84-38.2l-29.4,92.9l-5.5,17.4l-0.1-0.2l-4.8,14.9l-15.5-43.9
	c38.1-53.1-7.7-52.5-10.2-52.5c-2.5-0.1-48.3-0.7-10.2,52.5l-15.5,43.9l-4.8-14.9l-0.1,0.2l-5.5-17.4l-29.5-92.9
	c0,0-37.6,26.5-84,38.2c-31.5,8.1-35.6,41.9-35,62.7c44.3,52.5,110.6,85.8,184.6,85.8c74.1,0,140.4-33.3,184.7-85.9
	C426.6,376.3,422.4,342.5,391,334.5z M327.4,171.2c1.5-4.1,2.5-8.3,3.3-12.3c12.8-77.3-25.2-80-25.2-80s-6.3-12.2-22.9-21.3
	c-11.1-6.7-26.6-11.7-47-10c-6.7,0.2-12.9,1.6-18.8,3.5c-3.8,1.3-7.3,2.9-10.8,4.6c-3.5,1.8-6.8,3.8-9.9,6
	c-7.6,4.8-14.9,10.8-21.2,17.6c-10.1,10.3-19,23.6-22.9,40.3c-3.2,12.4-2.5,25.4,0.2,39.3c0.7,4,1.8,8.1,3.2,12.3
	c-7.6-0.7-16.6,3.7-8.1,33.5c6.3,21.8,11.9,27.9,16.3,28.2c4,25.9,24,59,56.9,70.5c13.5,4.7,28.3,4.8,41.8-0.1
	c32.3-11.7,53-44.6,57.1-70.4c4.4-0.4,10.1-6.4,16.2-28.3C344,174.9,335,170.4,327.4,171.2z"/>
</svg>
