<?xml version="1.0" encoding="utf-8"?>
<svg version="1.1" id="_x30_" xmlns="http://www.w3.org/2000/svg" xmlns:xlink="http://www.w3.org/1999/xlink" x="0px" y="0px"
	 viewBox="0 0 13.955 28.346" style="enable-background:new 0 0 13.955 28.346;" xml:space="preserve">
<style type="text/css">
	.st0{fill:#FF0000;}
</style>
<path id="_x31_" class="st0" d="M8.367,17.483L3.529,28.346H0l5.313-11.617C2.816,15.461,1.15,13.162,1.15,8.92
	C1.15,2.974,4.916,0,9.397,0h4.559v28.346h-3.052V17.483H8.367z M10.904,2.577H9.279c-2.459,0-4.838,1.625-4.838,6.343
	c0,4.559,2.18,6.026,4.838,6.026h1.625V2.577z"/>
</svg>
