<?xml version="1.0" encoding="utf-8"?>
<!-- Generator: Adobe Illustrator 22.1.0, SVG Export Plug-In . SVG Version: 6.00 Build 0)  -->
<svg version="1.1" id="_x31_" xmlns="http://www.w3.org/2000/svg" xmlns:xlink="http://www.w3.org/1999/xlink" x="0px" y="0px"
	 viewBox="0 0 53.5 53.5" style="enable-background:new 0 0 53.5 53.5; fill:#fff" xml:space="preserve">
<path id="_x32_" d="M51.3,53.5c-0.4,0-0.7-0.1-0.9-0.4L35.6,37.8c-3.8,3.1-8.5,4.7-13.4,4.7C10.5,42.6,1,33,1,21.3
	C1,9.6,10.5,0,22.3,0s21.3,9.5,21.3,21.3c0,5.6-2.1,10.8-6,14.8l14.7,15.3c0.5,0.5,0.5,1.3,0,1.8C51.9,53.4,51.6,53.5,51.3,53.5z
	 M22.3,2.6C11.9,2.6,3.5,11,3.5,21.3S11.9,40,22.3,40C32.6,40,41,31.6,41,21.3S32.6,2.6,22.3,2.6z"/>
</svg>
